"File"	"X"	"Y"	"Brightness"	"Gyration radius2"
"100826-002_spine1-D1R.tif"	13.3012	28.1754	0.00209351	0.0387452
"100826-002_spine1-D1R.tif"	14.431	19.2529	0.000859915	0.0164501
"100826-002_spine1-D1R.tif"	21.2384	27.469	0.00128465	0.0225335
"100826-002_spine1-D1R.tif"	33.0223	26.3331	0.00296103	0.0540124
"100826-002_spine1-D1R.tif"	43.3248	29.4093	0.00191587	0.0339388
"100826-002_spine1-D1R.tif"	47.4294	25.1662	0.00310627	0.0536889
"100826-002_spine1-D1R.tif"	57.0209	25.9846	0.00115809	0.0212883
"100826-002_spine1-D1R.tif"	70.2438	19.1886	0.0019156	0.0340052
"100826-002_spine1-D1R.tif"	74.4046	23.9336	0.00123176	0.0230478
"100826-002_spine1-D1R.tif"	77.0483	16.1636	0.00403191	0.0727173
"101027-009_spine1-D1R.tif"	18.232	41.2305	0.00124645	0.0220283
"101027-009_spine1-D1R.tif"	23.4645	58.4412	0.000812506	0.0154403
"101027-009_spine1-D1R.tif"	31.1184	52.002	0.00118319	0.0216967
"101027-009_spine1-D1R.tif"	32.3773	37.1904	0.00319032	0.0545693
"101027-009_spine1-D1R.tif"	34.3462	33.2289	0.00547798	0.0992288
"101027-009_spine1-D1R.tif"	44.3172	28.4973	0.00254395	0.0456867
"101027-009_spine1-D1R.tif"	48.3503	29.8053	0.000943995	0.0163348
"101027-009_spine1-D1R.tif"	50.3028	59.0506	0.00181754	0.0322128
"101027-009_spine1-D1R.tif"	53.4374	21.3738	0.00141681	0.0247705
"101027-009_spine1-D1R.tif"	53.4952	29.4191	0.00142445	0.0248572
"101027-009_spine1-D1R.tif"	54.2733	16.1796	0.000777002	0.0132854
"101027-009_spine1-D1R.tif"	61.2721	27.1708	0.00327982	0.0587955
"101027-009_spine1-D1R.tif"	62.1028	20.205	0.0029626	0.0524647
"101027-010_spine1-D1R.tif"	12.4337	29.1616	0.000628518	0.0109476
"101027-010_spine1-D1R.tif"	12.0671	34.4331	0.000568464	0.0100024
"101027-010_spine1-D1R.tif"	12.2207	76.3078	0.00171375	0.0310522
"101027-010_spine1-D1R.tif"	17.197	76.2888	0.00345661	0.0649118
"101027-010_spine1-D1R.tif"	19.003	69.9733	0.00107559	0.0196891
"101027-010_spine1-D1R.tif"	23.2841	52.3775	0.00242945	0.0428133
"101027-010_spine1-D1R.tif"	23.4057	76.2959	0.00197148	0.035622
"101027-010_spine1-D1R.tif"	25.4584	40.2145	0.00666897	0.128977
"101027-010_spine1-D1R.tif"	28.1357	34.0496	0.000594884	0.00929639
"101027-010_spine1-D1R.tif"	27.931	48.2775	0.00234435	0.0429573
"101027-010_spine1-D1R.tif"	28.4046	75.1856	0.00447723	0.0845099
"101027-010_spine1-D1R.tif"	30.1129	61.1211	0.00332788	0.0634982
"101027-010_spine1-D1R.tif"	36.1172	76.9808	0.000911157	0.0164946
"101027-010_spine1-D1R.tif"	41.4475	64.4267	0.00563662	0.101959
"101027-010_spine1-D1R.tif"	42.3814	76.1761	0.00114	0.0203659
"101027-010_spine2-D1R.tif"	13.0665	68.0092	0.00083265	0.0158227
"101027-010_spine2-D1R.tif"	20.4766	56.0255	0.000523151	0.00909622
"101027-010_spine2-D1R.tif"	20.2982	62.2437	0.00191476	0.0347639
"101027-010_spine2-D1R.tif"	21.4282	47.5036	0.00155699	0.0288083
"101027-010_spine2-D1R.tif"	21.3295	67.3208	0.000872124	0.0156134
"101027-010_spine2-D1R.tif"	23.2557	14.3564	0.00102768	0.0182808
"101027-010_spine2-D1R.tif"	23.4841	36.0019	0.00542232	0.0982397
"101027-010_spine2-D1R.tif"	29.2075	39.0685	0.00119619	0.0202044
"101027-010_spine2-D1R.tif"	31.3554	46.7386	0.000444835	0.00801624
"101027-010_spine2-D1R.tif"	32.2682	67.9744	0.0012543	0.023375
"101027-010_spine2-D1R.tif"	34.2977	42.0146	0.00171466	0.0305747
"101027-010_spine2-D1R.tif"	33.9484	51.3508	0.000575505	0.00982259
"101027-010_spine2-D1R.tif"	36.0056	18.1445	0.00233264	0.0421439
"101027-010_spine2-D1R.tif"	40.3855	23.0008	0.0033162	0.0595332
"101027-010_spine2-D1R.tif"	45.3708	65.3328	0.00110249	0.0207179
"101027-010_spine2-D1R.tif"	46.2662	52.4082	0.000958794	0.0176794
"101027-010_spine3-D1R.tif"	12.097	74.1124	0.000634216	0.011387
"101027-010_spine3-D1R.tif"	14.4457	63.3642	0.0013665	0.0252894
"101027-010_spine3-D1R.tif"	18.0884	26.5476	0.000679765	0.013007
"101027-010_spine3-D1R.tif"	18.2179	29.4211	0.000721281	0.01343
"101027-010_spine3-D1R.tif"	19.1783	52.0663	0.00305019	0.0567132
"101027-010_spine3-D1R.tif"	20.2725	39.4996	0.00145668	0.0263652
"101027-010_spine3-D1R.tif"	21.3996	73.4394	0.000685166	0.0127395
"101027-010_spine3-D1R.tif"	27.2931	30.3263	0.00371096	0.0669828
"101027-010_spine3-D1R.tif"	27.1639	51.4917	0.00553703	0.100917
"101027-010_spine3-D1R.tif"	28.1207	46.2219	0.00277302	0.0492158
"101027-010_spine3-D1R.tif"	35.3263	59.1422	0.000626056	0.0114939
"101027-010_spine3-D1R.tif"	36.6341	73.3262	0.00131411	0.0254627
"101027-010_spine3-D1R.tif"	39.0968	73.3261	0.00131464	0.0243554
"101027-010_spine4-D1R.tif"	12.3949	86.4893	0.00143347	0.0269313
"101027-010_spine4-D1R.tif"	17.4905	87.2327	0.00122968	0.0226191
"101027-010_spine4-D1R.tif"	23.9576	24.2219	0.00090508	0.0161124
"101027-010_spine4-D1R.tif"	25.4737	87.3654	0.00175245	0.0315356
"101027-010_spine4-D1R.tif"	25.9542	35.1213	0.000634103	0.0117626
"101027-010_spine4-D1R.tif"	26.9231	50.501	0.00105489	0.0195691
"101027-010_spine4-D1R.tif"	30.2673	62.4016	0.00053498	0.00837451
"101027-010_spine4-D1R.tif"	30.9706	24.3237	0.0015596	0.0294129
"101027-010_spine4-D1R.tif"	31.3552	68.2498	0.00645803	0.119944
"101027-010_spine4-D1R.tif"	33.4155	83.4113	0.0011728	0.0207542
"101027-010_spine4-D1R.tif"	34.3031	87.1851	0.000993364	0.0186582
"101027-010_spine4-D1R.tif"	45.1458	71.3315	0.000741468	0.0139855
"101027-010_spine4-D1R.tif"	45.2099	86.3958	0.00123684	0.0224548
"101028-007_spine1-D1R.tif"	20.2439	50.0082	0.0012276	0.0204373
"101028-007_spine1-D1R.tif"	22.3138	13.4397	0.00326254	0.0579049
"101028-007_spine1-D1R.tif"	25.3868	48.2305	0.00316146	0.0566933
"101028-007_spine1-D1R.tif"	33.1165	12.1208	0.000511786	0.00916503
"101028-007_spine1-D1R.tif"	36.2236	34.8857	0.000782554	0.0143187
"101028-007_spine1-D1R.tif"	41.4352	12.8414	0.000476306	0.0087319
"101028-007_spine1-D1R.tif"	41.1349	32.4041	0.00193938	0.0348187
"101028-007_spine1-D1R.tif"	46.4451	26.3185	0.00241414	0.0438052
"101028-007_spine1-D1R.tif"	52.2947	16.2708	0.00351605	0.0675237
"101028-007_spine1-D1R.tif"	59.1927	16.2856	0.00245184	0.0464652
"101028-007_spine1-D1R.tif"	65.9093	17.3642	0.00480702	0.0893248
"101028-009_spine1-D1R.tif"	14.098	31.0369	0.00322729	0.0575206
"101028-009_spine1-D1R.tif"	16.147	78.839	0.000627534	0.0124633
"101028-009_spine1-D1R.tif"	23.0623	23.9188	0.00119305	0.0219903
"101028-009_spine1-D1R.tif"	33.218	28.9455	0.00520455	0.100789
"101028-009_spine1-D1R.tif"	34.9023	34.0453	0.00132468	0.0257869
"101028-009_spine1-D1R.tif"	37.4687	77.8937	0.000751493	0.0139013
"101028-009_spine1-D1R.tif"	38.2328	15.2786	0.00266067	0.045979
"101028-009_spine1-D1R.tif"	38.9389	44.3645	0.00606914	0.109286
"101028-009_spine1-D1R.tif"	42.0066	36.3554	0.00703916	0.131066
"101028-009_spine1-D1R.tif"	45.2756	48.4721	0.00796123	0.142268
"101028-009_spine1-D1R.tif"	45.4172	78.0482	0.000899167	0.0168157
"101028-009_spine1-D1R.tif"	49.3131	55.1583	0.00703787	0.129412
"101028-009_spine1-D1R.tif"	53.2058	60.4598	0.00576442	0.107607
"101028-009_spine1-D1R.tif"	53.2872	73.2449	0.00579797	0.110341
"101028-009_spine1-D1R.tif"	54.0166	66.2372	0.0053671	0.106318
"101028-009_spine1-D1R.tif"	59.0803	74.2106	0.00269652	0.051406
"101028-009_spine1-D1R.tif"	63.4055	63.2102	0.00117764	0.0180285
"101028-009_spine1-D1R.tif"	67.3702	43.2894	0.00230787	0.0403225
"101028-009_spine1-D1R.tif"	67.1043	56.1783	0.000793803	0.0143929
"101028-009_spine1-D1R.tif"	67.1745	62.6401	0.00117315	0.0223229
"101028-009_spine1-D1R.tif"	67.2178	68.3753	0.00706104	0.1316
"101028-009_spine1-D1R.tif"	67.1075	77.1313	0.00282014	0.0512865
"101028-010_spine1-D1R.tif"	27.5184	23.0014	0.00141739	0.025286
"101028-010_spine1-D1R.tif"	31.4221	29.288	0.00277303	0.0508233
"101028-010_spine1-D1R.tif"	31.8256	22.2859	0.000513129	0.00943405
"101028-010_spine1-D1R.tif"	39.2229	25.4807	0.00373441	0.0677681
"101028-010_spine1-D1R.tif"	45.227	32.0897	0.00108618	0.019728
"101028-010_spine1-D1R.tif"	50.1365	35.3013	0.000726843	0.0121393
"101028-010_spine1-D1R.tif"	54.3672	44.8742	0.00142091	0.0269661
"101028-010_spine1-D1R.tif"	56.3686	34.7932	0.000680078	0.0135247
"101028-010_spine1-D1R.tif"	60.1376	33.0699	0.00446094	0.0826671
"101028-010_spine1-D1R.tif"	61.0893	22.0669	0.00104706	0.0191647
"101028-010_spine1-D1R.tif"	65.3193	34.9717	0.00217243	0.0396058
"101028-010_spine1-D1R.tif"	69.1829	25.3333	0.00138118	0.0248989
"101028-010_spine1-D1R.tif"	69.4225	44.2958	0.00202527	0.0373286
"101028-010_spine1-D1R.tif"	71.4478	32.3574	0.000943323	0.0154616
"101028-011_spine1-D1R.tif"	12.4732	69.1831	0.000716007	0.0132361
"101028-011_spine1-D1R.tif"	17.4891	53.4367	0.00648382	0.115153
"101028-011_spine1-D1R.tif"	32.3584	42.9443	0.000591643	0.0099918
"101028-011_spine1-D1R.tif"	33.9597	39.1597	0.00112771	0.0210588
"101028-011_spine1-D1R.tif"	36.3247	32.9698	0.0023999	0.0426189
"101028-011_spine1-D1R.tif"	38.234	27.3206	0.00188892	0.0316195
"101028-011_spine1-D1R.tif"	41.2935	34.0349	0.000931412	0.015206
"101028-011_spine2-D1R.tif"	13.3341	30.2562	0.00110306	0.0196282
"101028-011_spine2-D1R.tif"	14.4453	64.0859	0.00270357	0.0516482
"101028-011_spine2-D1R.tif"	15.2677	57.1987	0.00254973	0.0470551
"101028-011_spine2-D1R.tif"	16.1783	38.0742	0.000918505	0.0151913
"101028-011_spine2-D1R.tif"	18.424	64.157	0.00229099	0.0421651
"101028-011_spine2-D1R.tif"	19.2789	43.3862	0.00215036	0.0389311
"101028-011_spine2-D1R.tif"	21.3574	33.4749	0.000670453	0.0102471
"101028-011_spine2-D1R.tif"	25.2634	42.4706	0.00390129	0.0681951
"101028-011_spine2-D1R.tif"	25.998	53.1121	0.00433545	0.0808763
"101028-011_spine2-D1R.tif"	26.9602	30.533	0.00223453	0.0439644
"101028-011_spine2-D1R.tif"	27.1917	33.4073	0.00204745	0.0368539
"101028-011_spine2-D1R.tif"	27.494	64.2047	0.00159651	0.029163
"101028-011_spine2-D1R.tif"	29.0895	24.0335	0.00161598	0.0297707
"101028-011_spine2-D1R.tif"	33.3591	22.0497	0.000990451	0.0165995
"101028-011_spine2-D1R.tif"	34.1868	57.4252	0.00106979	0.0191042
