"Gene"	"myPvalueColumn"
"G1"	NA
"G2"	NA
"G3"	0.982254063470836
"G4"	0.350425534653664
"G5"	0.200766059959414
"G6"	0.900119288476819
"G7"	0.884873626653172
"G8"	0.101735091382032
"G9"	0.826167082772596
"G10"	NA
"G11"	0.769997773218847
"G12"	NA
"G13"	0.147236324423131
"G14"	0.338620896368730
"G15"	NA
"G16"	0.599637962107269
"G17"	0.00999369777967064
"G18"	NA
"G19"	0.912172677285494
"G20"	0.54537833084731
"G21"	0.582481400760088
"G22"	0.258640389637690
"G23"	0.175039866992968
"G24"	0.178329007208658
"G25"	0.977143110417817
"G26"	NA
"G27"	NA
"G28"	0.600739891067539
"G29"	NA
"G30"	0.50682956570096
"G31"	0.694771555146272
"G32"	0.76344689724481
"G33"	0.980484332466296
"G34"	0.721007860263014
"G35"	0.736085038969205
"G36"	NA
"G37"	0.365322675950397
"G38"	0.0778646206609162
"G39"	0.517727037605035
"G40"	NA
"G41"	0.713426340027231
"G42"	NA
"G43"	0.13281164213676
"G44"	0.61666950458835
"G45"	0.163776128320711
"G46"	0.369227330429123
"G47"	0.554999761583852
"G48"	0.497411445896634
"G49"	0.901276552709248
"G50"	0.414359054412191
"G51"	0.753591307572422
"G52"	0.210890076020747
"G53"	0.0766598939830147
"G54"	NA
"G55"	0.691942058273596
"G56"	0.895353870260142
"G57"	0.02737978611694
"G58"	0.704300701082166
"G59"	0.520969279280131
"G60"	0.678549836885323
"G61"	NA
"G62"	0.000137022222399117
"G63"	0.765635430955302
"G64"	0.185810483551067
"G65"	0.664689228947568
"G66"	0.873585459215177
"G67"	0.341612628298864
"G68"	NA
"G69"	0.984576747678488
"G70"	0.546440185885913
"G71"	0.313557196228514
"G72"	NA
"G73"	NA
"G74"	0.359124763761694
"G75"	0.487611419637795
"G76"	0.382819209063491
"G77"	0.794278422354658
"G78"	0.84737532508091
"G79"	0.845181885175752
"G80"	0.914180332155324
"G81"	0.570446553042791
"G82"	NA
"G83"	0.457031724500892
"G84"	0.246257592538076
"G85"	0.828733515515632
"G86"	0.536018146083441
"G87"	0.902265986894723
"G88"	0.733393596902145
"G89"	0.39217355444391
"G90"	NA
"G91"	0.485672249495746
"G92"	0.98550310779532
"G93"	0.468180196982850
"G94"	0.114683594759145
"G95"	NA
"G96"	0.939182617334036
"G97"	0.354475976413873
"G98"	0.195143205141937
"G99"	0.46399601185934
"G100"	0.0286246326080231
"G101"	0.795741979149654
"G102"	0.0384721470605046
"G103"	0.0718410403742719
"G104"	0.0449710167927424
"G105"	0.173323900156560
"G106"	NA
"G107"	0.486744296717259
"G108"	0.381913616871420
"G109"	0.597469840231542
"G110"	0.0203977492156195
"G111"	0.370667874650016
"G112"	0.313082145063644
"G113"	0.626900259855423
"G114"	NA
"G115"	0.906666231963217
"G116"	0.0713077837108309
"G117"	NA
"G118"	NA
"G119"	0.0202666428786139
"G120"	0.5472562379765
"G121"	NA
"G122"	0.741735735995622
"G123"	0.847253045682087
"G124"	0.7772532176438
"G125"	0.922671851886516
"G126"	NA
"G127"	0.496868275353898
"G128"	0.640409778995219
"G129"	0.991695940784263
"G130"	0.942008347669587
"G131"	0.239826116834105
"G132"	NA
"G133"	NA
"G134"	0.834511292042065
"G135"	NA
"G136"	0.0304162209431087
"G137"	0.7804274956673
"G138"	0.309618268867948
"G139"	NA
"G140"	0.530385206850047
"G141"	NA
"G142"	0.826439051428302
"G143"	0.489515876830877
"G144"	0.275133053003509
"G145"	0.163786141978995
"G146"	0.252480347504699
"G147"	0.149119723654628
"G148"	0.667228714906782
"G149"	0.0640609532256048
"G150"	0.212724506743307
"G151"	0.00663628189882556
"G152"	0.66874216933714
"G153"	0.0177519994310876
"G154"	0.0450029798270011
"G155"	0.0146942585566781
"G156"	NA
"G157"	0.160472215396560
"G158"	NA
"G159"	0.516738762178434
"G160"	0.566094304442903
"G161"	0.521680246018945
"G162"	0.807370769083861
"G163"	0.372888164670321
"G164"	NA
"G165"	NA
"G166"	0.969895025012003
"G167"	0.971051449151626
"G168"	0.311752607191992
"G169"	0.84884778895208
"G170"	0.525784462173261
"G171"	0.810659689920037
"G172"	0.939809200683563
"G173"	NA
"G174"	0.495429616328584
"G175"	0.603786198622024
"G176"	0.635143197459862
"G177"	0.371643871039111
"G178"	0.723191215278923
"G179"	NA
"G180"	NA
"G181"	NA
"G182"	0.942071746546615
"G183"	0.81914637788984
"G184"	0.700282048668588
"G185"	0.538801201568912
"G186"	0.82613781236663
"G187"	0.809358460971182
"G188"	NA
"G189"	0.0128734828158916
"G190"	0.526615868209418
"G191"	0.120251507539755
"G192"	0.709940135638546
"G193"	0.56211486605813
"G194"	0.111575052940739
"G195"	0.132606036131625
"G196"	0.637434660437439
"G197"	0.978404873573433
"G198"	0.64484004977391
"G199"	0.806281831384353
"G200"	0.810639817718886
