"Row"	"File"	"Distance"	"Point X"	"Point Y"	"Reference X"	"Reference Y"
1	"100826-002_spine1-D1R.tif"	6.7582	12.4901	14.4356	14.431	19.2529
2	"100826-002_spine1-D1R.tif"	2.2601	13.0996	20.1816	14.431	19.2529
3	"100826-002_spine1-D1R.tif"	2.9443	13.0895	25.4428	13.3012	28.1754
4	"100826-002_spine1-D1R.tif"	2.2183	14.3755	29.3194	13.3012	28.1754
5	"100826-002_spine1-D1R.tif"	14.8244	25.3498	25.3996	13.3012	28.1754
6	"100826-002_spine1-D1R.tif"	19.8505	32.2625	27.2862	13.3012	28.1754
