"Vertex"	"InDegree"	"OutDegree"	"ClusteringCoeff"	"DegreeCentrality"	"ClosenessCentrality"	"BetweennessCentrality"	"EigenvectorCentrality"	"DegreeCentralityRank"	"ClosenessCentralityRank"	"BetweennessCentralityRank"	"EigenvectorCentralityRank"
"v1"	0	3	0.6666666666666666	3.0	14.0	0.0	0.5230448629711851	0.625	0.0	0.0	0.75
"v2"	1	1	1.0	2.0	NA	0.0	0.4288305539903134	0.125	1.125	0.0	0.125
"v3"	1	1	1.0	2.0	NA	0.0	0.4288305539903134	0.125	1.125	0.0	0.125
"v4"	3	4	0.23809523809523808	7.0	NA	15.0	1.0	1.0	1.125	1.0	1.0
"v5"	1	1	1.0	2.0	NA	0.0	0.47771352113067306	0.125	1.125	0.0	0.375
"v6"	1	1	1.0	2.0	NA	0.0	0.47771352113067306	0.125	1.125	0.0	0.375
"v7"	3	1	0.5	4.0	NA	4.0	0.6966577417290217	0.875	1.125	0.75	0.875
"v8"	2	1	0.3333333333333333	3.0	NA	7.0	0.5188458999294608	0.625	1.125	0.875	0.625
"v9"	1	0	0.0	1.0	NA	0.0	0.14608613494183365	0.0	1.125	0.0	0.0
