"Vertex1"	"Vertex2"	"width"	"color"	"newEdgeAttr"
"n0"	"n1"	1	""	"a1"
"n0"	"n2"	3.5	""	"a2"
"n0"	"n3"	NA	""	NA
"n1"	"n3"	NA	""	NA
"n2"	"n3"	NA	""	NA
"n3"	"n4"	5	"yellow"	NA
"n3"	"n5"	NA	""	"a3"
"n3"	"n6"	0	"black"	NA
"n3"	"n7"	NA	""	NA
"n4"	"n6"	NA	""	NA
"n5"	"n6"	NA	""	NA
"n6"	"n7"	9.9	""	NA
"n7"	"n8"	NA	""	"a4"
