"ID"	"Value"	"Value"	"Value"	"Value"	"Value"	"Value"	"Value"	"Value"	"Value"	"Value"	"Value"	"Value"	"Value"
"id1"	NA	NA	NA	NA	NA	NA	NA	NA	NA	NA	NA	NA	NA
"id2"	NA	NA	NA	NA	NA	NA	NA	NA	NA	NA	NA	NA	NA
"id3"	"3"	NA	NA	NA	NA	NA	NA	NA	NA	NA	NA	NA	NA
"id4"	NA	"4"	NA	NA	NA	NA	NA	NA	NA	NA	NA	NA	NA
"id5"	NA	NA	"5"	NA	NA	NA	NA	NA	NA	NA	NA	NA	NA
"id6"	NA	NA	NA	"6"	NA	NA	NA	NA	NA	NA	NA	NA	NA
"id7"	NA	NA	NA	NA	"seven"	NA	NA	NA	NA	NA	NA	NA	NA
"id8"	NA	NA	NA	NA	NA	"acht"	NA	NA	NA	NA	NA	NA	NA
"id9"	NA	NA	NA	NA	NA	NA	"njet"	NA	NA	NA	NA	NA	NA
"id10"	NA	NA	NA	NA	NA	NA	NA	"diez"	NA	NA	NA	NA	NA
"id11"	NA	NA	NA	NA	NA	NA	NA	NA	"11"	NA	NA	NA	NA
"id12"	NA	NA	NA	NA	NA	NA	NA	NA	NA	"12"	NA	NA	NA
"id13"	NA	NA	NA	NA	NA	NA	NA	NA	NA	NA	"samma pa svenska"	NA	NA
"id14"	NA	NA	NA	NA	NA	NA	NA	NA	NA	NA	NA	"14"	NA
"id15"	NA	NA	NA	NA	NA	NA	NA	NA	NA	NA	NA	NA	"15"
