"File"	"G1DilMean"	"G2DilMean"	"Y1DilMean"	"Y2DilMean"	"R1DilMean"	"R2DilMean"
"1001.png"	"0.018504458"	"0.023696879"	"0.0161641"	"0.013808521"	"0.07327876"	"0.04533316"
"1011.png"	"0.0106470463636364"	"0.0138245127272727"	"0.0113258009090909"	"0.00510257636363636"	"0.0521262090909091"	"0.0228550090909091"
"1013.png"	"0.01121370875"	"0.01340132075"	"0.012943483125"	"0.006264143125"	"0.05885274375"	"0.018933246875"
"1015.png"	"0.017151521875"	"0.02361230875"	"0.0181842125"	"0.01203977375"	"0.09807141875"	"0.02606835"
"1017.png"	"0.008178225"	"0.01505943875"	"0.0385222125"	"0.00295989875"	"0.0723761625"	"0.0251175375"
"1019.png"	"0.00621548107941176"	"0.00927596202647059"	"0.0980124264705882"	"0.00492850382352941"	"0.0235104"	"0.0103323447058824"
"1021.png"	"0.00567322166666667"	"0.00799745766666667"	"0.10716398"	"0.00756032466666667"	"0.02968756"	"0.00716502633333333"
"1023.png"	"0.00418059878"	"0.006218520132"	"0.055917472"	"0.00866719112"	"0.0269054864"	"0.0081711952"
"1025.png"	"0.005748201"	"0.00915650133333333"	"0.0945723533333333"	"0.02189477"	"0.05723482"	"0.020164818"
"1027.png"	"0.00623796333333333"	"0.00829462285714286"	"0.0795976333333333"	"0.00703870880952381"	"0.0361907857142857"	"0.0113893578571429"
"1051.png"	"0.01266208"	"0.0177443538461538"	"0.0301644076923077"	"0.000567398923076923"	"0.0380781153846154"	"0.0225383384615385"
"1053.png"	"0.017407313"	"0.027856916"	"0.037230509"	"0.00113675767"	"0.063692045"	"0.018456782"
"1055.png"	"0.00895502"	"0.018324345"	"0.034718025"	"0.00129540658333333"	"0.047988325"	"0.0224500808333333"
"1057.png"	"0.0305790583333333"	"0.0221709166666667"	"0.0286143"	"0.00035643375"	"0.0362458833333333"	"0.0149385516666667"
"1083.png"	"0.0064649021875"	"0.00896226375"	"0.066427378125"	"0.0189764740625"	"0.048158159375"	"0.0131566503125"
"1085.png"	"0.0045930085"	"0.00667806"	"0.050140175"	"0.012906525"	"0.02946529"	"0.0177541785"
"1087.png"	"0.00872453352941176"	"0.0133549864705882"	"0.0722927617647059"	"0.0302868941176471"	"0.0599138617647059"	"0.0256547823529412"
"1089.png"	"0.00684707578947368"	"0.0104880973684211"	"0.0707656263157895"	"0.0234028736842105"	"0.0527921842105263"	"0.0285030052631579"
"1091.png"	"0.00372269818181818"	"0.00380318181818182"	"0.0523976818181818"	"0.00402334745454545"	"0.0330078127272727"	"0.0213080818181818"
"1101.png"	"0.0166237178571429"	"0.0265393107142857"	"0.03924827"	"0.00205453646428571"	"0.0424908285714286"	"0.0288720635714286"
"1103.png"	"0.0572669894736842"	"0.0395272052631579"	"0.0639349894736842"	"0.00454162957894737"	"0.0585798210526316"	"0.0282527210526316"
"1105.png"	"0.025589508"	"0.0308436866666667"	"0.0448114333333333"	"0.0019772548"	"0.0359937266666667"	"0.02715108"
"1107.png"	"0.0205079405263158"	"0.0227301631578947"	"0.0389965578947368"	"0.000859282473684211"	"0.0338252210526316"	"0.0200411152631579"
"1110.png"	"0.0116981446153846"	"0.0103620052307692"	"0.0232181230769231"	"0.00136097060769231"	"0.0298942392307692"	"0.00406730415384615"
"1112.png"	"0.0216785958823529"	"0.0245074588235294"	"0.0336191764705882"	"0.000961025882352941"	"0.0377741058823529"	"0.0124948347058824"
"1114.png"	"0.0161531966666667"	"0.02722678926"	"0.0287432213333333"	"0.00062577492"	"0.0246689933333333"	"0.01065354652"
"1116.png"	"0.013248333125"	"0.029966419375"	"0.04408075"	"0.002570530875"	"0.03343229375"	"0.01854291875"
"1118.png"	"0.0359274809523809"	"0.0287483380952381"	"0.0468908761904762"	"0.00143503338095238"	"0.0466470476190476"	"0.0218926276190476"
"1159.png"	"0.00562545160526316"	"0.00674060342105263"	"0.0737623157894737"	"0.00630700105263158"	"0.0366658973684211"	"0.00507031026315789"
"1161.png"	"0.00721686878048781"	"0.0140721949756098"	"0.0868262878048781"	"0.00719929512195122"	"0.028914212195122"	"0.00411736551219512"
"1163.png"	"0.0037055664137931"	"0.00502826082758621"	"0.0716961344827586"	"0.00498170434482759"	"0.0250876593103448"	"0.00330249310344828"
"1165.png"	"0.00372902026666667"	"0.0069446451"	"0.0574793333333333"	"0.00344125503333333"	"0.022638811"	"0.00302915736666667"
"1167.png"	"0.00711053137931035"	"0.0237720962068966"	"0.0544303551724138"	"0.00191164210344828"	"0.0320014310344828"	"0.0117057762068966"
"1169.png"	"0.00638100516129032"	"0.0304060935483871"	"0.0621857032258065"	"0.00284670696774194"	"0.0472482225806452"	"0.0119452064516129"
"1171.png"	"0.00699420407407407"	"0.0235067255555556"	"0.0656577444444444"	"0.00791173518518518"	"0.078983437037037"	"0.0225095466666667"
"1173.png"	"0.00946301333333333"	"0.0320946171794872"	"0.0584592487179487"	"0.00890959641025641"	"0.0811913794871795"	"0.0216770123076923"
"1175.png"	"0.0107527647058824"	"0.0485796117647059"	"0.0625398647058824"	"0.0120395817647059"	"0.0660639529411765"	"0.03762865"
"1177.png"	"0.00829121"	"0.0387478459459459"	"0.052620227027027"	"0.00559174783783784"	"0.0373573702702703"	"0.0218868997297297"
"1230.png"	"0.0595114086956522"	"0.0274233391304348"	"0.0578162173913043"	"0.00091571752173913"	"0.0519328956521739"	"0.0187687165217391"
"1232.png"	"0.0668071515151515"	"0.0277880657575758"	"0.051591533030303"	"0.000855863151515152"	"0.0504627354545455"	"0.015237406969697"
"1234.png"	"0.0332899129166667"	"0.02389069375"	"0.0407402083333333"	"0.000505410125"	"0.0348294258333333"	"0.0174398604166667"
"1236.png"	"0.03862386875"	"0.033493015"	"0.039809325"	"0.0003800337"	"0.0344586"	"0.0192699525"
"1238.png"	"0.0284381153846154"	"0.0173140869230769"	"0.0380524076923077"	"0.000458546615384615"	"0.0334992769230769"	"0.0146916130769231"
"1240.png"	"0.050607644"	"0.03377104"	"0.047790096"	"0.000411686148"	"0.034986044"	"0.0206914428"
"1252.png"	"0.00970271807692308"	"0.0129970026923077"	"0.0624734807692308"	"0.000782824615384615"	"0.0718086346153846"	"0.0191386688461538"
"1254.png"	"0.0126719460909091"	"0.0202967865454545"	"0.0688200272727273"	"0.00167825793939394"	"0.0670554727272727"	"0.0207214606060606"
"1256.png"	"0.0146592396551724"	"0.0249791610344828"	"0.0664129172413793"	"0.00215745765517241"	"0.0530809213793103"	"0.0335240275862069"
"1258.png"	"0.0160500126666667"	"0.0258612366666667"	"0.0785095533333333"	"0.00214717316666667"	"0.07687987"	"0.0248786766666667"
"1260.png"	"0.0133631846666667"	"0.0271272733333333"	"0.0737057866666667"	"0.00259954866666667"	"0.043869922"	"0.0282718866666667"
"1303.png"	"0.0138289221428571"	"0.0107568564285714"	"0.0522781285714286"	"0.0320866571428571"	"0.0490206"	"0.0226899285714286"
"1305.png"	"0.009701803"	"0.008125934"	"0.03055865"	"0.03850206"	"0.04981987"	"0.030923428"
"1367.png"	"0.00670157107142857"	"0.0114981871428571"	"0.0596025285714286"	"0.0176411767857143"	"0.0257437921428571"	"0.01768713"
"1369.png"	"0.00610150294117647"	"0.0161023094117647"	"0.0561183058823529"	"0.0342096941176471"	"0.0305516529411765"	"0.0291540117647059"
"1371.png"	"0.00578694232"	"0.01614568372"	"0.0764809"	"0.019165664"	"0.0242748876"	"0.0140890292"
"1373.png"	"0.007649536"	"0.0157674193333333"	"0.0654373866666667"	"0.0231229776666667"	"0.03834124"	"0.0212595043333333"
"1375.png"	"0.00621997238095238"	"0.0116143"	"0.0771032333333333"	"0.018963019047619"	"0.0187403904761905"	"0.013757240952381"
"1377.png"	"0.01200344"	"0.0127904617647059"	"0.0836130764705882"	"0.0464191058823529"	"0.0456251352941176"	"0.0238872117647059"
"1379.png"	"0.00966921315789474"	"0.00866374789473684"	"0.0854901421052632"	"0.0350793421052632"	"0.0402786421052632"	"0.0217198931578947"
"1381.png"	"0.00859016782608696"	"0.010578067826087"	"0.0805268043478261"	"0.00716953260869565"	"0.0196239495652174"	"0.0122636886956522"
"1383.png"	"0.0109459155172414"	"0.00736980917241379"	"0.120126120689655"	"0.0374464620689655"	"0.0458181068965517"	"0.020343994137931"
"1385.png"	"0.0123337042424242"	"0.00769411427272727"	"0.115139448484848"	"0.0393447666666667"	"0.0464801303030303"	"0.0125531309090909"
"1387.png"	"0.0122059137037037"	"0.0192347496296296"	"0.0588364666666667"	"0.0284194037037037"	"0.0312760037037037"	"0.0264676407407407"
"1389.png"	"0.00902076538461538"	"0.00725560538461538"	"0.0794735269230769"	"0.0272670461538462"	"0.0354823961538462"	"0.0116773676923077"
"1391.png"	"0.0135489496153846"	"0.00845346346153846"	"0.0988870615384615"	"0.0403799038461538"	"0.0225086503846154"	"0.00659632269230769"
"1393.png"	"0.00928538571428571"	"0.0102218021428571"	"0.0974298142857143"	"0.0389236214285714"	"0.0295066071428571"	"0.0236323"
"1402.png"	"0.0845948037037037"	"0.0243790922222222"	"0.163608962962963"	"1.54055148148148e-05"	"0.0402944"	"0.0249863666666667"
"1404.png"	"0.0392930090909091"	"0.0203579709090909"	"0.0958539272727273"	"1.84902090909091e-05"	"0.0158671890909091"	"0.01251307"
"1406.png"	"0.0385612866666667"	"0.02053292"	"0.114053066666667"	"1.63595533333333e-05"	"0.017068824"	"0.0140695526666667"
"1408.png"	"0.0179328363636364"	"0.00883602818181818"	"0.188984181818182"	"1.58031727272727e-05"	"0.0474363545454545"	"0.0318454545454545"
"1410.png"	"0.03851515"	"0.0108100983333333"	"0.213817166666667"	"1.56153833333333e-05"	"0.0460705333333333"	"0.0630563833333333"
"1412.png"	"0.0213199714285714"	"0.0241515142857143"	"0.0493302714285714"	"0.0441774714285714"	"0.0761307142857143"	"0.0528959857142857"
"1414.png"	"0.0351046833333333"	"0.0178746141666667"	"0.0507160083333333"	"0.0476715583333333"	"0.0900534916666667"	"0.060028575"
"1416.png"	"0.06947877"	"0.0181341147368421"	"0.0596469526315789"	"0.0813484368421053"	"0.115423026315789"	"0.0486862210526316"
"1418.png"	"0.0200837666666667"	"0.0222123777777778"	"0.0510534"	"0.0506318444444444"	"0.0531387222222222"	"0.0496371444444444"
"1420.png"	"0.0214314571428571"	"0.0167022785714286"	"0.0457119285714286"	"0.0359356"	"0.0339664142857143"	"0.0416673285714286"
"1571.png"	"0.015573471"	"0.00170335225"	"0.024141545"	"0.028814995"	"0.038945575"	"0.009074984"
"1573.png"	"0.04549486875"	"0.008108198125"	"0.02704470625"	"0.0327805625"	"0.03528143125"	"0.01876501125"
"1575.png"	"0.0352830380952381"	"0.00904849519047619"	"0.0274263714285714"	"0.0405530761904762"	"0.0397182185714286"	"0.0138603723809524"
"1577.png"	"0.0169151061111111"	"0.00458369862222222"	"0.0227375833333333"	"0.0240474444444444"	"0.0304368444444444"	"0.00971957444444444"
"1579.png"	"0.023370895"	"0.00693351428571429"	"0.0253685928571429"	"0.0308871357142857"	"0.03135345"	"0.0173764121428571"
"1581.png"	"0.0329816570588235"	"0.00292035894117647"	"0.0227088882352941"	"0.0255402617647059"	"0.0280732782352941"	"0.00548659294117647"
"1583.png"	"0.0237457872727273"	"0.00239709227272727"	"0.0252924272727273"	"0.0118682431818182"	"0.0222815045454545"	"0.00927553318181818"
"1585.png"	"0.0275737266666667"	"0.00414543061111111"	"0.0303031055555556"	"0.0177961555555556"	"0.0360756444444444"	"0.0185545622222222"
"1587.png"	"0.0242267370588235"	"0.00376590152941176"	"0.0304144764705882"	"0.0196222352941176"	"0.0262085823529412"	"0.00928198764705882"
"1589.png"	"0.0275655846153846"	"0.00431811223076923"	"0.0255271384615385"	"0.0197573692307692"	"0.0144933823076923"	"0.00907891692307692"
"1591.png"	"0.00887654906666667"	"0.000758438066666667"	"0.0210768466666667"	"0.0150881886666667"	"0.0124997266666667"	"0.00293192486666667"
"1593.png"	"0.008697676875"	"0.0025011050625"	"0.0219839875"	"0.01599875625"	"0.009288565"	"0.0094307875"
"1595.png"	"0.00803376333333333"	"0.00360030895238095"	"0.0928080428571429"	"0.0232580428571429"	"0.045285080952381"	"0.0109602314285714"
"1597.png"	"0.0058361665483871"	"0.00201099826774194"	"0.0782992"	"0.0204968225806452"	"0.0317221129032258"	"0.00535127774193548"
"1599.png"	"0.00554937954545455"	"0.00458383563636364"	"0.0865543090909091"	"0.0196722136363636"	"0.0329030636363636"	"0.0144531322727273"
"1601.png"	"0.00701545571428571"	"0.00584040523809524"	"0.0710927571428571"	"0.0147190333333333"	"0.0191964333333333"	"0.02161714"
"1603.png"	"0.00622610723076923"	"0.00569456311923077"	"0.0574974461538462"	"0.0135990215384615"	"0.0161787303846154"	"0.01985402"
"1605.png"	"0.00351213216666667"	"0.00308847960555556"	"0.0384703333333333"	"0.0114206755555556"	"0.014117355"	"0.00965333111111111"
"1607.png"	"0.00510604233333333"	"0.00390594242777778"	"0.0437512833333333"	"0.0132642627777778"	"0.0224914611111111"	"0.0112989527777778"
"1609.png"	"0.00685622352941177"	"0.0026861355"	"0.113027279411765"	"0.0195109397058824"	"0.0422550205882353"	"0.00748110411764706"
"1611.png"	"0.0041977177037037"	"0.00144347964074074"	"0.100172785185185"	"0.0188899925925926"	"0.033171437037037"	"0.00807174407407407"
"1613.png"	"0.00816930666666667"	"0.00836963492592593"	"0.101594392592593"	"0.0191007259259259"	"0.030674562962963"	"0.0139754496296296"
"1615.png"	"0.00359074476923077"	"0.00201495905384615"	"0.0483639076923077"	"0.00975816038461538"	"0.015703305"	"0.00607998884615385"
"1617.png"	"0.00376277496"	"0.002059243428"	"0.049021076"	"0.0046535036"	"0.0072723732"	"0.00415468872"
"1619.png"	"0.00403322384615385"	"0.00275301569230769"	"0.0370986538461538"	"0.00468477923076923"	"0.00382289307692308"	"0.00738087923076923"
