	Level_0_group	Level_1_group	Level_2_group
1772058177_A06	0	0	0
1772062128_B02	0	0	0
1772067073_B03	0	0	0
1772063061_A09	0	0	0
1772062111_E06	0	0	0
1772067076_H05	0	0	0
1772062113_G12	0	0	0
1772058177_E11	0	0	0
1772063063_B04	0	0	0
1772060225_F06	0	0	0
1772058171_F09	0	0	0
1772066096_C01	0	0	0
1772063063_F05	0	0	0
1772060225_E07	0	0	0
1772062128_B11	0	0	0
1772062115_G07	0	0	0
1772062114_B10	0	0	0
1772063074_C02	0	0	0
1772067069_B03	0	0	0
1772067060_A02	0	0	0
1772062113_B09	0	0	0
1772060225_D10	0	0	0
1772066099_H01	0	0	0
1772058171_B01	0	0	0
1772062113_D01	0	0	0
1772066089_E05	0	0	0
1772062118_G05	0	0	0
1772063063_C02	0	0	0
1772067074_E07	0	0	0
1772062113_D10	0	0	0
1772062113_D08	0	0	0
1772062109_E08	0	0	0
1772067069_F06	0	0	0
1772062113_H02	0	0	0
1772062114_B01	0	0	0
1772060225_B07	0	0	0
1772071044_G06	0	0	0
1772062115_C03	0	0	0
1772062116_F01	0	0	0
1772066108_H05	0	0	0
1772062118_E08	0	0	0
1772063063_E07	0	0	0
1772062111_C08	0	0	0
1772062109_G03	0	0	0
1772063063_F08	0	0	0
1772066098_B11	0	0	0
1772063061_G05	0	0	0
1772062114_G10	0	0	0
1772066080_D07	0	0	0
1772062115_F08	0	0	0
1772063063_C07	0	0	0
1772062115_G09	0	0	0
1772067074_C07	0	0	0
1772060240_A10	0	0	0
1772067076_C07	0	0	0
1772062115_D07	0	0	0
1772066080_G07	0	0	0
1772063070_G03	0	0	0
1772058177_D09	0	0	0
1772062109_A05	0	0	0
1772058171_C02	0	0	0
1772062116_B05	0	0	0
1772066070_G12	0	0	0
1772067063_D03	0	0	0
1772062111_F07	0	0	0
1772060225_A05	0	0	0
1772063062_E07	0	0	0
1772062115_C01	0	0	0
1772063078_B09	0	0	0
1772058177_D03	0	0	0
1772063078_A11	0	0	0
1772062114_A12	0	0	0
1772060224_B04	0	0	0
1772062111_H05	0	0	0
1772062115_A09	0	0	0
1772066098_C04	0	0	0
1772067057_G07	0	0	0
1772066090_G12	0	0	0
1772067064_G07	0	0	0
1772067070_A05	0	0	0
1772066095_B05	0	0	0
1772066108_A08	0	0	0
1772067070_D08	0	0	0
1772060226_F05	0	0	0
1772066080_D05	0	0	0
1772062128_F06	0	0	0
1772058171_G10	0	0	0
1772062118_F08	0	0	0
1772058171_C03	0	0	0
1772058171_B09	0	0	0
1772058177_E07	0	0	0
1772058177_C06	0	0	0
1772058171_G08	0	0	0
1772058171_C04	0	0	0
1772062113_F12	0	0	0
1772062111_C04	0	0	0
1772058171_B04	0	0	0
1772063062_C10	0	0	0
1772058177_C01	0	0	0
1772066076_G04	0	0	0
1772062109_B05	0	0	0
1772071045_F05	0	0	0
1772058171_D08	0	0	0
1772063074_D10	0	0	0
1772066100_G06	0	0	0
1772066076_F11	0	0	0
1772058171_C09	0	0	0
1772066076_G06	0	0	0
1772058171_F03	0	0	0
1772062128_H11	0	0	0
1772067058_B10	0	0	0
1772063061_F04	0	0	0
1772067076_G12	0	0	0
1772062128_D09	0	0	0
1772058171_E05	0	0	0
1772062128_F08	0	0	0
1772062128_C10	0	0	0
1772066076_F05	0	0	0
1772058171_C08	0	0	0
1772058148_B01	0	0	0
1772067076_B10	0	0	0
1772058171_G11	0	0	0
1772058171_C10	0	0	0
1772058177_B04	0	0	0
1772067059_G06	0	0	0
1772058177_F06	0	0	0
1772058171_A09	0	0	0
1772063064_F07	0	0	0
1772058171_D10	0	0	0
1772058177_E06	0	0	0
1772062115_E03	0	0	0
1772063078_F04	0	0	0
1772062113_G01	0	0	0
1772058171_E10	0	0	0
1772071045_D02	0	0	0
1772062128_F04	0	0	0
1772062128_H02	0	0	0
1772067054_F08	0	0	0
1772060224_D10	0	0	0
1772058177_B09	0	0	0
1772063079_D11	0	0	0
1772066095_F11	0	0	0
1772058171_D02	0	0	0
1772066096_G11	0	0	0
1772062116_H02	0	0	0
1772058171_G03	0	0	0
1772058177_E12	0	0	0
1772058177_B06	0	0	0
1772058171_B06	0	0	0
1772058171_B07	0	0	0
1772066108_E12	0	0	0
1772058171_H02	0	0	0
1772067059_D11	0	0	0
1772067060_H04	0	0	0
1772067063_G11	0	0	0
1772058171_D04	0	0	0
1772058171_D03	0	0	0
1772067076_D02	0	0	0
1772058171_G01	0	0	0
1772062113_E07	0	0	0
1772062115_C07	0	0	0
1772067059_D12	0	0	0
1772067076_B09	0	0	0
1772058177_F08	0	0	0
1772058177_E10	0	0	0
1772066104_C11	0	0	0
1772067066_B04	0	0	0
1772063074_A09	0	0	0
1772063063_G10	0	0	0
1772063063_A12	0	0	0
1772062111_F06	0	0	0
1772062111_B07	0	0	0
1772062109_H10	0	0	0
1772067074_A11	0	0	0
1772060240_F11	0	0	0
1772062111_B10	0	0	0
1772062118_E01	0	0	0
1772062111_C01	0	0	0
1772067069_D04	0	0	0
1772063070_E07	0	0	0
1772062116_A12	0	0	0
1772060225_H11	0	0	0
1772063063_F03	0	0	1
1772066077_A06	0	0	1
1772066099_B12	0	0	1
1772066098_A03	0	0	1
1772066090_B02	0	0	1
1772066070_C12	0	0	1
1772066070_G10	0	0	1
1772066074_A08	0	0	1
1772066102_D12	0	0	1
1772066070_B06	0	0	1
1772066095_F09	0	0	1
1772066095_A03	0	0	1
1772066108_H08	0	0	1
1772066095_G12	0	0	1
1772066089_C04	0	0	1
1772066108_H11	0	0	1
1772063077_C03	0	0	1
1772063061_D12	0	0	1
1772060225_G06	0	0	1
1772062113_H11	0	0	1
1772063061_B04	0	0	1
1772062116_B12	0	0	1
1772063063_F10	0	0	1
1772060224_H11	0	0	1
1772062113_A12	0	0	1
1772063068_B05	0	0	1
1772062113_E02	0	0	1
1772063078_G01	0	0	1
1772062116_H06	0	0	1
1772063061_A07	0	0	1
1772060226_H10	0	0	1
1772062113_G06	0	0	1
1772063068_E05	0	0	1
1772063065_A02	0	0	1
1772062111_E08	0	0	1
1772063078_G08	0	0	1
1772063064_D09	0	0	1
1772062111_B04	0	0	1
1772062116_E04	0	0	1
1772066110_F08	0	0	1
1772063079_F07	0	0	1
1772063062_B04	0	0	1
1772063063_E02	0	0	1
1772063074_G07	0	0	1
1772063070_C06	0	0	1
1772058148_F02	0	0	1
1772063068_F10	0	0	1
1772060225_C05	0	0	1
1772060224_A01	0	0	1
1772062116_D04	0	0	1
1772063071_A05	0	0	1
1772063061_D01	0	0	1
1772060226_H01	0	0	1
1772063078_D09	0	0	1
1772063070_D05	0	0	1
1772063062_C01	0	0	1
1772063068_G06	0	0	1
1772063062_D10	0	0	1
1772063065_H08	0	0	1
1772063078_C07	0	0	1
1772063070_H07	0	0	1
1772062113_D12	0	0	1
1772062116_E08	0	0	1
1772062116_E01	0	0	1
1772066110_A04	0	0	1
1772062114_B03	0	0	1
1772062113_D09	0	0	1
1772063062_D08	0	0	1
1772067076_G01	0	0	1
1772062114_C07	0	0	1
1772060225_C07	0	0	1
1772060240_B12	0	0	1
1772062118_C07	0	0	1
1772062111_E04	0	0	1
1772060240_F02	0	0	1
1772062118_G11	0	0	1
1772066108_E05	0	0	1
1772066108_D06	0	0	1
1772067096_F04	0	0	1
1772060225_G07	0	0	1
1772066098_A04	0	0	1
1772066098_F01	0	0	1
1772071035_A02	0	0	1
1772071036_G02	0	0	1
1772067058_D12	0	0	1
1772066108_A05	0	0	1
1772067059_C11	0	0	1
1772071041_G10	0	0	1
1772067057_A12	0	0	1
1772067070_C09	0	0	1
1772067060_E10	0	0	1
1772067059_A01	0	0	1
1772067060_D02	0	0	1
1772066108_C04	0	0	1
1772062111_B02	0	0	1
1772067064_A09	0	0	1
1772062109_A07	0	0	1
1772066107_E11	0	0	1
1772063064_G09	0	0	1
1772066090_D10	0	0	1
1772066077_H04	0	0	1
1772062113_B01	0	0	1
1772066077_C02	0	0	1
1772063062_F08	0	0	1
1772063063_H08	0	0	1
1772063062_G01	0	0	1
1772063062_F03	0	0	1
1772063063_H07	0	0	1
1772062116_E07	0	0	1
1772071041_A10	0	0	1
1772062109_F08	0	0	1
1772063077_D10	0	0	1
1772060224_C08	0	0	1
1772063065_B03	0	0	1
1772063070_G01	0	0	1
1772063078_F05	0	0	1
1772060225_H10	0	0	1
1772063063_C10	0	0	1
1772067057_B03	0	0	1
1772062109_C11	0	0	1
1772060225_F09	0	0	1
1772058171_H07	0	0	1
1772062111_B05	0	0	1
1772062115_C04	0	0	1
1772063077_C01	0	0	1
1772067069_H05	0	0	1
1772062113_F02	0	0	1
1772062115_F05	0	0	1
1772063068_F06	0	0	1
1772063062_F09	0	0	1
1772063062_B03	0	0	1
1772071040_A06	0	0	1
1772062113_B03	0	0	1
1772062113_F03	0	0	1
1772063078_B08	0	0	1
1772060225_H12	0	0	1
1772071041_D10	0	0	1
1772060240_C09	0	0	1
1772063062_D05	0	0	1
1772063077_B07	0	0	1
1772062115_A02	0	0	1
1772063061_E12	0	0	1
1772062111_C03	0	0	1
1772062109_D04	0	0	1
1772062115_G11	0	0	1
1772063078_C09	0	0	1
1772063078_B01	0	0	1
1772063078_D05	0	0	1
1772060226_G06	0	0	1
1772063078_B11	0	0	1
1772063061_F11	0	0	1
1772063062_F01	0	0	1
1772063078_F02	0	0	1
1772063068_A09	0	0	1
1772062114_F03	0	0	1
1772066097_D10	0	0	1
1772063061_A11	0	0	1
1772062113_C03	0	0	1
1772060240_C04	0	0	1
1772062115_A04	0	0	1
1772058148_B08	0	0	1
1772060224_F03	0	0	1
1772071040_C12	0	0	1
1772062115_B11	0	0	1
1772058148_A04	0	0	1
1772063063_D06	0	0	1
1772063063_A01	0	0	1
1772062111_C02	0	0	1
1772062111_G04	0	0	1
1772060226_A12	0	1	2
1772062118_A05	0	1	2
1772062111_H02	0	1	2
1772058177_A03	0	1	2
1772060225_F12	0	1	2
1772063063_G02	0	1	2
1772062109_C12	0	1	2
1772058148_A09	0	1	2
1772063078_A09	0	1	2
1772062111_F10	0	1	2
1772066077_B04	0	1	2
1772062109_F12	0	1	2
1772062109_C06	0	1	2
1772062118_B06	0	1	2
1772062109_F04	0	1	2
1772058177_G05	0	1	2
1772063061_E08	0	1	2
1772060224_D03	0	1	2
1772063062_C07	0	1	2
1772062111_E11	0	1	2
1772062111_C05	0	1	2
1772063061_H11	0	1	2
1772062109_D10	0	1	2
1772062109_B11	0	1	2
1772062116_B06	0	1	2
1772058171_A11	0	1	2
1772062116_A09	0	1	2
1772062109_G05	0	1	2
1772062118_H03	0	1	2
1772062128_E12	0	1	2
1772062118_D03	0	1	2
1772063074_C03	0	1	2
1772063074_E07	0	1	2
1772063063_E05	0	1	2
1772062109_B08	0	1	2
1772063063_E10	0	1	2
1772060224_A06	0	1	2
1772063077_D09	0	1	2
1772063074_B06	0	1	2
1772060226_A06	0	1	2
1772060226_G10	0	1	2
1772060226_A10	0	1	2
1772060226_A08	0	1	2
1772060226_B04	0	1	2
1772060226_F04	0	1	2
1772060226_F08	0	1	2
1772060226_G11	0	1	2
1772060226_F06	0	1	2
1772060226_H04	0	1	2
1772060226_E10	0	1	2
1772060226_B11	0	1	2
1772060226_B03	0	1	2
1772060226_B07	0	1	2
1772060226_E05	0	1	2
1772060226_C03	0	1	2
1772060226_D01	0	1	2
1772060226_D11	0	1	2
1772060226_C07	0	1	2
1772060226_G05	0	1	2
1772060226_H11	0	1	2
1772060226_A07	0	1	2
1772060226_D12	0	1	2
1772060226_A01	0	1	2
1772060226_A11	0	1	2
1772060226_D04	0	1	2
1772063079_C12	0	1	2
1772058171_D01	0	1	2
1772066108_H04	0	1	2
1772067064_B10	0	1	2
1772063079_H03	0	1	2
1772058171_A02	0	1	2
1772063079_D02	0	1	2
1772063079_E09	0	1	2
1772062118_D05	0	1	2
1772063064_E03	0	1	2
1772062114_H04	0	1	2
1772067060_F01	0	1	2
1772062116_C06	0	1	2
1772063079_F09	0	1	2
1772066089_F12	0	1	2
1772071040_C04	0	1	2
1772062111_B11	0	1	2
1772063061_D02	0	1	2
1772067064_D10	0	1	2
1772066076_E05	0	1	2
1772063061_F12	0	1	2
1772063061_G11	0	1	2
1772062118_C10	0	1	2
1772062114_A06	0	1	2
1772062111_D05	0	1	2
1772066080_B04	0	1	2
1772062109_H02	0	1	2
1772062116_G03	0	1	2
1772062115_B08	0	1	2
1772062118_G06	0	1	2
1772060224_E09	0	1	2
1772063079_D08	0	1	2
1772062115_C10	0	1	2
1772062115_A06	0	1	2
1772062114_A08	0	1	2
1772062116_A02	0	1	2
1772062114_B12	0	1	2
1772066096_C04	0	1	2
1772062115_E04	0	1	2
1772060225_B06	0	1	2
1772062114_D10	0	1	2
1772060226_E12	0	1	2
1772062114_C06	0	1	2
1772062113_C09	0	1	2
1772063074_G10	0	1	2
1772063079_A06	0	1	2
1772062118_D02	0	1	2
1772063074_H10	0	1	2
1772062115_E07	0	1	2
1772063079_C10	0	1	2
1772062114_F08	0	1	2
1772060226_C04	0	1	2
1772060224_D01	0	1	2
1772062115_G12	0	1	2
1772067073_E11	0	1	2
1772058171_E06	0	1	2
1772060225_C04	0	1	2
1772063074_A12	0	1	2
1772063079_A12	0	1	2
1772063077_F04	0	1	2
1772063077_A12	0	1	2
1772063074_F12	0	1	2
1772067054_A06	0	1	2
1772062116_F05	0	1	2
1772063061_D05	0	1	2
1772071040_C10	0	1	2
1772062118_G02	0	1	2
1772066098_D10	0	1	2
1772058148_E07	0	1	2
1772067059_F05	0	1	2
1772060226_B12	0	1	2
1772063074_H05	0	1	2
1772067094_E11	0	1	2
1772067074_F05	0	1	2
1772060225_A12	0	1	2
1772062115_B03	0	1	2
1772066103_H11	0	1	2
1772063061_E07	0	1	2
1772066101_H08	0	1	2
1772062118_D10	0	1	2
1772060225_A11	0	1	2
1772067054_A11	0	1	2
1772062116_F08	0	1	2
1772066098_A11	0	1	2
1772067083_C11	0	1	2
1772063074_A01	0	1	2
1772067066_H05	0	1	2
1772063068_H06	0	1	2
1772067058_A10	0	1	2
1772058148_B06	0	1	2
1772060225_D07	0	1	2
1772066100_F06	0	1	2
1772062118_H05	0	1	2
1772062115_H05	0	1	2
1772063079_G07	0	1	2
1772063065_H06	0	1	2
1772067073_A08	0	1	2
1772066098_C06	0	1	2
1772071041_E05	0	1	2
1772058171_A04	0	1	2
1772063064_H11	0	1	2
1772060224_B08	0	1	2
1772067066_E12	0	1	2
1772062128_G02	0	1	2
1772067094_F05	0	1	2
1772060226_D06	0	1	2
1772067064_G04	0	1	2
1772062115_A10	0	1	2
1772062128_B04	0	1	2
1772060225_E12	0	1	2
1772060225_D09	0	1	2
1772060225_A07	0	1	2
1772058171_B05	0	1	2
1772071045_E11	0	1	2
1772063063_C08	0	1	2
1772071040_D02	0	1	2
1772062114_A01	0	1	2
1772062113_C06	0	1	2
1772062111_E05	0	1	2
1772062111_D09	0	1	2
1772062113_G05	0	1	2
1772066102_A05	0	1	2
1772067064_H01	0	1	2
1772062128_C05	0	1	2
1772063062_H01	0	1	2
1772067074_A01	0	1	2
1772062128_G11	0	1	2
1772062118_B05	0	1	2
1772062128_H08	0	1	2
1772058171_E07	0	1	2
1772062109_A03	0	1	2
1772067065_G08	0	1	2
1772060225_D08	0	1	2
1772060225_C02	0	1	2
1772067066_C04	0	1	2
1772062113_D04	0	1	2
1772071040_H06	0	1	2
1772067063_B07	0	1	2
1772067073_F06	0	1	2
1772067069_A09	0	1	2
1772067069_A02	0	1	2
1772067073_C02	0	1	2
1772071040_H10	0	1	2
1772067074_E11	0	1	2
1772067070_C12	0	1	2
1772067073_D10	0	1	2
1772067070_H09	0	1	2
1772058171_F05	0	1	2
1772071041_F05	0	1	2
1772062118_C04	0	1	2
1772067074_D12	0	1	2
1772071014_D12	0	1	2
1772071040_A08	0	1	2
1772062118_F10	0	1	2
1772063063_D08	0	1	2
1772066098_D12	0	1	2
1772062114_E06	0	1	2
1772060240_A12	0	1	2
1772067058_F10	0	1	2
1772062114_H10	0	1	2
1772062116_E02	0	1	2
1772062115_G04	0	1	2
1772062113_E10	0	1	2
1772062128_F09	0	1	2
1772071041_B04	0	1	2
1772066102_G11	0	1	2
1772062118_B03	0	1	2
1772062109_A09	0	1	2
1772066098_B04	0	1	2
1772062116_H05	0	1	2
1772062118_A03	0	1	2
1772067064_B06	0	1	2
1772062115_D05	0	1	2
1772063062_E08	0	1	2
1772063074_F10	0	1	2
1772063065_D03	0	1	2
1772062115_E01	0	1	2
1772063062_E01	0	1	2
1772063079_F04	0	1	2
1772060225_G04	0	1	2
1772063062_G11	0	1	2
1772062128_A01	0	1	2
1772071040_G11	0	1	2
1772066097_B12	0	1	2
1772062114_F05	0	1	2
1772071041_A12	0	1	2
1772062109_C03	0	1	2
1772063062_E11	0	1	2
1772063078_B07	0	1	2
1772071041_A08	0	1	2
1772062109_H04	0	1	2
1772058171_C12	0	1	2
1772067069_G04	0	1	2
1772071040_D04	0	1	2
1772063074_C12	0	1	2
1772060224_H04	0	1	2
1772062114_E05	0	1	2
1772071040_D12	0	1	2
1772062113_A08	0	1	2
1772071040_D05	0	1	2
1772062114_E11	0	1	2
1772060240_F04	0	1	2
1772058148_A06	0	1	2
1772060224_B03	0	1	2
1772063074_G04	0	1	2
1772063061_G08	0	1	2
1772063068_D10	0	1	2
1772063074_H11	0	1	2
1772063070_G06	0	1	2
1772060225_E02	0	1	2
1772062118_C01	0	1	2
1772067064_C10	0	1	2
1772063063_B06	0	1	2
1772067074_F04	0	1	2
1772063074_A11	0	1	2
1772062113_B11	0	1	2
1772063078_E11	0	1	2
1772062115_C06	0	1	2
1772063062_G05	0	1	2
1772058171_F06	0	1	2
1772062114_H12	0	1	2
1772067074_F06	0	1	2
1772062118_H10	0	1	2
1772063079_D07	0	1	2
1772063061_D10	0	1	2
1772063062_A08	0	1	2
1772062109_A12	0	1	2
1772071040_C11	0	1	2
1772063078_H04	0	1	2
1772063062_H08	0	1	2
1772062114_B09	0	1	2
1772060240_G11	0	1	2
1772062115_B10	0	1	2
1772067073_D01	0	1	2
1772063077_D02	0	1	2
1772063062_A06	0	1	2
1772062111_G02	0	1	2
1772062111_D11	0	1	2
1772071040_G05	0	1	2
1772060240_F06	0	1	2
1772063078_B06	0	1	2
1772060224_C04	0	1	2
1772062113_B06	0	1	2
1772062111_G01	0	1	2
1772063074_G12	0	1	2
1772062115_D04	0	1	2
1772062116_C11	0	1	2
1772062114_A03	0	1	2
1772060225_C11	0	1	2
1772060225_D12	0	1	2
1772062115_B06	0	1	2
1772062111_C09	0	1	2
1772063061_B12	0	1	2
1772063061_C05	0	1	2
1772062113_G09	0	1	2
1772060240_F10	0	1	2
1772063079_H01	0	1	3
1772062111_H04	0	1	3
1772062114_D06	0	1	3
1772063077_E09	0	1	3
1772063078_F11	0	1	3
1772066102_E10	0	1	3
1772062128_E09	0	1	3
1772063078_E03	0	1	3
1772063063_A11	0	1	3
1772060224_B05	0	1	3
1772060224_A02	0	1	3
1772060224_A07	0	1	3
1772063064_E07	0	1	3
1772063070_C10	0	1	3
1772058148_D07	0	1	3
1772066110_H11	0	1	3
1772062111_H07	0	1	3
1772062113_B04	0	1	3
1772058177_E04	0	1	3
1772058148_G01	0	1	3
1772062113_F07	0	1	3
1772058148_G09	0	1	3
1772062116_F10	0	1	3
1772062113_A02	0	1	3
1772063064_D06	0	1	3
1772062113_C02	0	1	3
1772063063_A04	0	1	3
1772058148_F07	0	1	3
1772066090_F05	0	1	3
1772060226_B02	0	1	3
1772063063_B11	0	1	3
1772062111_C06	0	1	3
1772058148_G08	0	1	3
1772063074_E01	0	1	3
1772062111_A07	0	1	3
1772067054_C12	0	1	3
1772066090_A04	0	1	3
1772063063_B10	0	1	3
1772060226_G12	0	1	3
1772058177_C02	0	1	3
1772062115_H08	0	1	3
1772058148_A03	0	1	3
1772060224_A11	0	1	3
1772062113_C11	0	1	3
1772060225_B12	0	1	3
1772071036_G12	0	1	3
1772060240_G10	0	1	3
1772062118_H04	0	1	3
1772066099_E05	0	1	3
1772067060_G06	0	1	3
1772067076_B06	0	1	3
1772066099_D10	0	1	3
1772066077_A03	0	1	3
1772062109_E07	0	1	3
1772060226_D03	0	1	3
1772060224_G06	0	1	3
1772066108_H10	0	1	3
1772060226_B10	0	1	3
1772063078_C08	0	1	3
1772060240_H04	0	1	3
1772060224_G07	0	1	3
1772062118_E02	0	1	3
1772062115_E11	0	1	3
1772063061_C03	0	1	3
1772060226_F10	0	1	3
1772060224_H05	0	1	3
1772062114_H05	0	1	3
1772063061_B11	0	1	3
1772062118_F02	0	1	3
1772058148_G12	0	1	3
1772058148_A11	0	1	3
1772058148_A01	0	1	3
1772062109_F01	0	1	3
1772058148_G11	0	1	3
1772058171_C01	0	1	3
1772058177_B05	0	1	3
1772058177_D08	0	1	3
1772062116_A11	0	1	3
1772058171_E02	0	1	3
1772058171_F08	0	1	3
1772062109_F06	0	1	3
1772066076_B12	0	1	3
1772058171_D06	0	1	3
1772063074_A04	0	1	3
1772067059_E05	0	1	3
1772067064_C08	0	1	3
1772058177_F03	0	1	3
1772058177_D05	0	1	3
1772062111_A10	0	1	3
1772058177_A02	0	1	3
1772063079_H02	0	1	3
1772060224_C10	0	1	3
1772063061_F05	0	1	3
1772058177_D06	0	1	3
1772062111_E12	0	1	3
1772063079_C01	0	1	3
1772062116_G06	0	1	3
1772062111_F05	0	1	3
1772062128_C01	0	1	3
1772062128_D03	0	1	3
1772062111_G11	0	1	3
1772062113_A05	0	1	3
1772063078_A03	0	1	3
1772066099_E11	0	1	3
1772067073_G10	0	1	3
1772062118_H12	0	1	3
1772060225_D06	0	1	3
1772062128_H05	0	1	3
1772071041_F06	0	1	3
1772058177_D02	0	1	3
1772067074_F09	0	1	3
1772066108_G12	0	1	3
1772062111_E03	0	1	3
1772063062_F12	0	1	3
1772071040_G04	0	1	3
1772060226_G04	0	1	3
1772062128_E11	0	1	3
1772062111_F11	0	1	3
1772063062_E06	0	1	3
1772071041_D06	0	1	3
1772062115_D03	0	1	3
1772063079_E08	0	1	3
1772063079_E02	0	1	3
1772060226_E11	0	1	3
1772058177_D12	0	1	3
1772063079_D09	0	1	3
1772063079_D01	0	1	3
1772062113_G11	0	1	3
1772063065_F12	0	1	3
1772062109_C07	0	1	3
1772063061_H10	0	1	3
1772062111_A12	0	1	3
1772063078_D12	0	1	3
1772066098_E12	0	1	3
1772062109_B01	0	1	3
1772062118_F01	0	1	3
1772062113_A01	0	1	3
1772058171_B08	0	1	3
1772058177_C12	0	1	3
1772063063_E06	0	1	3
1772063062_D01	0	1	3
1772062116_F04	0	1	3
1772058148_A10	0	1	3
1772058177_A01	0	1	3
1772060225_G01	0	1	3
1772063079_C04	0	1	3
1772058148_C02	0	1	3
1772063070_D01	0	1	3
