Sepal.Length	Sepal.Width	Petal.Length	Petal.Width	Species
7.1	3	5.9	2.1	virginica
7.6	3	6.6	2.1	virginica
7.3	2.9	6.3	1.8	virginica
6.7	2.5	5.8	1.8	virginica
7.2	3.6	6.1	2.5	virginica
6.8	3	5.5	2.1	virginica
7.7	3.8	6.7	2.2	virginica
7.7	2.6	6.9	2.3	virginica
6.9	3.2	5.7	2.3	virginica
7.7	2.8	6.7	2	virginica
6.7	3.3	5.7	2.1	virginica
7.2	3.2	6	1.8	virginica
7.2	3	5.8	1.6	virginica
7.4	2.8	6.1	1.9	virginica
7.9	3.8	6.4	2	virginica
7.7	3	6.1	2.3	virginica
6.9	3.1	5.4	2.1	virginica
6.7	3.1	5.6	2.4	virginica
6.9	3.1	5.1	2.3	virginica
6.8	3.2	5.9	2.3	virginica
6.7	3.3	5.7	2.5	virginica
6.7	3	5.2	2.3	virginica
