"Columns1"	"Values1"	"Columns2"	"Values2"	"Support1"	"Support2"	"Confidence"
"C2"	"b"	"C1"	"a"	16	16	1.0
"C3"	"c"	"C1"	"a"	8	8	1.0
"C3"	"c"	"C2"	"b"	8	8	1.0
"C3,C2"	"c,b"	"C1"	"a"	8	8	1.0
"C3,C1"	"c,a"	"C2"	"b"	8	8	1.0
"C3"	"c"	"C1,C2"	"a,b"	8	8	1.0
"C2"	"v"	"C1"	"a"	4	4	1.0
"C1"	"a"	"C2"	"b"	20	16	0.8
"C2"	"b"	"C3"	"c"	16	8	0.5
"C1,C2"	"a,b"	"C3"	"c"	16	8	0.5
"C2"	"b"	"C3,C1"	"c,a"	16	8	0.5
