"File"	"X"	"Y"	"Object"
"100826-002_spine1-D1R.tif"	12.4901	14.4356	1
"100826-002_spine1-D1R.tif"	13.0996	20.1816	2
"100826-002_spine1-D1R.tif"	13.0895	25.4428	3
"100826-002_spine1-D1R.tif"	14.3755	29.3194	4
"100826-002_spine1-D1R.tif"	25.3498	25.3996	5
"100826-002_spine1-D1R.tif"	32.2625	27.2862	6
"100826-002_spine1-D1R.tif"	68.4486	18.4699	7
"100826-002_spine1-D1R.tif"	76.1283	22.2696	8
"101027-009_spine1-D1R.tif"	14.3579	60.3129	9
"101027-009_spine1-D1R.tif"	16.8826	55.3614	10
"101027-009_spine1-D1R.tif"	22.4321	57.1076	11
"101027-009_spine1-D1R.tif"	36.1808	34.0782	12
"101027-009_spine1-D1R.tif"	42.4898	35.3146	13
"101027-009_spine1-D1R.tif"	44.1128	28.0809	14
"101027-009_spine1-D1R.tif"	49.3586	28.2599	15
"101027-009_spine1-D1R.tif"	54.2873	15.3309	16
"101027-010_spine1-D1R.tif"	21.373	77.2023	17
"101027-010_spine1-D1R.tif"	26.1181	40.4792	18
"101027-010_spine1-D1R.tif"	29.3399	34.1994	19
"101027-010_spine1-D1R.tif"	29.4955	59.4556	20
"101027-010_spine1-D1R.tif"	34.238	76.3483	21
"101027-010_spine2-D1R.tif"	12.3015	57.387	22
"101027-010_spine2-D1R.tif"	17.0476	43.9827	23
"101027-010_spine2-D1R.tif"	19.9669	37.0632	24
"101027-010_spine2-D1R.tif"	21.9986	57.1315	25
"101027-010_spine2-D1R.tif"	23.1316	41.4006	26
"101027-010_spine2-D1R.tif"	25.964	22.1737	27
"101027-010_spine2-D1R.tif"	31.3227	67.8976	28
"101027-010_spine2-D1R.tif"	33.1182	36.4143	29
"101027-010_spine2-D1R.tif"	33.3347	45.369	30
"101027-010_spine2-D1R.tif"	35.2849	22.3944	31
"101027-010_spine2-D1R.tif"	41.254	24.2952	32
"101027-010_spine2-D1R.tif"	41.0259	66.972	33
"101027-010_spine3-D1R.tif"	19.0284	44.3074	34
"101027-010_spine3-D1R.tif"	20.1659	33.1132	35
"101027-010_spine3-D1R.tif"	20.3676	58.4362	36
"101027-010_spine3-D1R.tif"	26.1583	52.2791	37
"101027-010_spine3-D1R.tif"	31.1188	20.1235	38
"101027-010_spine3-D1R.tif"	33.1609	52.3562	39
"101027-010_spine4-D1R.tif"	12.3108	87.2405	40
"101027-010_spine4-D1R.tif"	25.4559	46.4092	41
"101027-010_spine4-D1R.tif"	26.2296	87.9084	42
"101027-010_spine4-D1R.tif"	29.2107	64.0046	43
"101027-010_spine4-D1R.tif"	32.1723	25.1933	44
"101027-010_spine4-D1R.tif"	32.1219	55.4534	45
"101027-010_spine4-D1R.tif"	35.2852	77.3151	46
"101027-010_spine4-D1R.tif"	35.4258	87.478	47
"101027-010_spine4-D1R.tif"	36.3852	33.3028	48
"101027-010_spine4-D1R.tif"	40.4329	86.2738	49
"101028-007_spine1-D1R.tif"	12.2628	12.109	50
"101028-007_spine1-D1R.tif"	18.3351	50.4038	51
"101028-007_spine1-D1R.tif"	24.9848	48.4169	52
"101028-007_spine1-D1R.tif"	34.4194	15.3865	53
"101028-007_spine1-D1R.tif"	47.2551	24.9721	54
"101028-007_spine1-D1R.tif"	49.3622	17.3594	55
"101028-007_spine1-D1R.tif"	55.029	38.9871	56
"101028-007_spine1-D1R.tif"	56.3334	12.5065	57
"101028-007_spine1-D1R.tif"	59.1921	16.0053	58
"101028-009_spine1-D1R.tif"	21.361	33.3644	59
"101028-009_spine1-D1R.tif"	24.953	52.1893	60
"101028-009_spine1-D1R.tif"	31.4588	27.3998	61
"101028-009_spine1-D1R.tif"	31.3802	35.373	62
"101028-009_spine1-D1R.tif"	31.1926	43.4316	63
"101028-009_spine1-D1R.tif"	35.362	55.3365	64
"101028-009_spine1-D1R.tif"	37.3556	29.2749	65
"101028-009_spine1-D1R.tif"	37.4059	46.4705	66
"101028-009_spine1-D1R.tif"	37.1982	49.0617	67
"101028-009_spine1-D1R.tif"	43.003	52.2867	68
"101028-009_spine1-D1R.tif"	42.1528	77.9895	69
"101028-009_spine1-D1R.tif"	46.4621	53.3646	70
"101028-009_spine1-D1R.tif"	49.3989	77.9215	71
"101028-009_spine1-D1R.tif"	51.2586	60.4613	72
"101028-009_spine1-D1R.tif"	51.234	70.4459	73
"101028-009_spine1-D1R.tif"	54.3208	77.9516	74
"101028-009_spine1-D1R.tif"	61.3875	64.1845	75
"101028-009_spine1-D1R.tif"	66.2616	74.326	76
"101028-009_spine1-D1R.tif"	67.8868	59.4883	77
"101028-010_spine1-D1R.tif"	23.4088	30.0467	78
"101028-010_spine1-D1R.tif"	29.4523	29.2602	79
"101028-010_spine1-D1R.tif"	53.2999	44.2714	80
"101028-010_spine1-D1R.tif"	57.0472	42.9311	81
"101028-010_spine1-D1R.tif"	57.9791	34.2586	82
"101028-010_spine1-D1R.tif"	64.1843	44.0406	83
"101028-010_spine1-D1R.tif"	67.4692	31.2711	84
"101028-010_spine1-D1R.tif"	70.4272	31.1323	85
"101028-011_spine1-D1R.tif"	20.3131	48.008	86
"101028-011_spine1-D1R.tif"	30.384	42.1681	87
"101028-011_spine1-D1R.tif"	34.3238	33.2418	88
"101028-011_spine2-D1R.tif"	16.5087	62.3427	89
"101028-011_spine2-D1R.tif"	17.4559	43.1622	90
"101028-011_spine2-D1R.tif"	22.9686	41.3103	91
"101028-011_spine2-D1R.tif"	24.1247	35.4565	92
"101028-011_spine2-D1R.tif"	26.0232	22.2973	93
"101028-011_spine2-D1R.tif"	29.2648	58.5344	94
