H1	H2	C1	C2	C3	C4
header1_1	header1_2	x1_1	x1_2	x1_3	x1_4
header2_1	header2_2	x2_1	x2_2	x2_3	x2_4
header3_1	header3_2	x3_1	x3_2	x3_3	x3_4
header4_1	header4_2	x4_1	x4_2	x4_3	x4_4
header5_1	header5_2	x5_1	x5_2	x5_3	x5_4
