index	PhenoCluster
1	0
2	3
3	3
4	3
5	0
6	0
7	3
8	0
9	3
10	3
11	0
12	3
13	3
14	3
15	0
16	0
17	0
18	0
19	0
20	0
21	0
22	0
23	3
24	0
25	3
26	3
27	0
28	0
29	0
30	3
31	3
32	0
33	0
34	0
35	3
36	3
37	0
38	0
39	3
40	0
41	0
42	3
43	3
44	0
45	0
46	3
47	0
48	3
49	0
50	0
51	4
52	4
53	4
54	1
55	4
56	1
57	4
58	1
59	4
60	1
61	1
62	1
63	1
64	4
65	1
66	4
67	1
68	1
69	4
70	1
71	5
72	1
73	5
74	4
75	4
76	4
77	4
78	4
79	4
80	1
81	1
82	1
83	1
84	5
85	1
86	4
87	4
88	4
89	1
90	1
91	1
92	4
93	1
94	1
95	1
96	1
97	1
98	4
99	1
100	1
101	2
102	5
103	6
104	2
105	2
106	6
107	1
108	6
109	2
110	6
111	2
112	2
113	2
114	5
115	5
116	2
117	2
118	6
119	6
120	5
121	2
122	5
123	6
124	5
125	2
126	6
127	5
128	5
129	2
130	6
131	6
132	6
133	2
134	5
135	5
136	6
137	2
138	2
139	5
140	2
141	2
142	2
143	5
144	2
145	2
146	2
147	5
148	2
149	2
150	5
