"Gene"	"myPvalueColumn"	"PValueCor"
"G1"	NA	NA
"G2"	NA	NA
"G3"	0.396246338543885	0.977302929726045
"G4"	0.617801804857379	0.993700725224854
"G5"	0.381420079802368	0.977302929726045
"G6"	0.0281447785863073	0.79078835024297
"G7"	0.67488214364785	0.993700725224854
"G8"	0.147516361193135	0.96302416618315
"G9"	0.199032278205489	0.96302416618315
"G10"	NA	NA
"G11"	0.934811728813675	0.993700725224854
"G12"	0.406146671195053	0.977302929726045
"G13"	0.134497962402255	0.96302416618315
"G14"	0.499186876909022	0.993700725224854
"G15"	0.43833759321025	0.99173880463819
"G16"	0.983941847668933	0.993700725224854
"G17"	0.953586451929113	0.993700725224854
"G18"	NA	NA
"G19"	0.0833608014500509	0.79078835024297
"G20"	0.91532701051425	0.993700725224854
"G21"	0.932520196245944	0.993700725224854
"G22"	0.385564610403247	0.977302929726045
"G23"	0.311434348531249	0.977302929726045
"G24"	0.420503549629652	0.977302929726045
"G25"	0.0329062966490556	0.79078835024297
"G26"	NA	NA
"G27"	NA	NA
"G28"	0.711951147710015	0.993700725224854
"G29"	NA	NA
"G30"	0.719141241244443	0.993700725224854
"G31"	0.551694174489574	0.993700725224854
"G32"	0.82382737413974	0.993700725224854
"G33"	0.23924328792932	0.977302929726045
"G34"	0.905544614956464	0.993700725224854
"G35"	0.991935256338068	0.993700725224854
"G36"	NA	NA
"G37"	0.702200095476796	0.993700725224854
"G38"	0.0325634823830854	0.79078835024297
"G39"	0.960213899628716	0.993700725224854
"G40"	0.962157960778726	0.993700725224854
"G41"	0.486875610414507	0.993700725224854
"G42"	0.253261278283669	0.977302929726045
"G43"	0.0754183141970763	0.79078835024297
"G44"	0.882866954111143	0.993700725224854
"G45"	0.166329490572293	0.96302416618315
"G46"	0.869144204018202	0.993700725224854
"G47"	0.596948905105453	0.993700725224854
"G48"	0.803376040556222	0.993700725224854
"G49"	0.827376003588551	0.993700725224854
"G50"	0.8726063032364	0.993700725224854
"G51"	0.35671286176	0.977302929726045
"G52"	0.732524727878763	0.993700725224854
"G53"	0.397526545127761	0.977302929726045
"G54"	0.190731640984778	0.96302416618315
"G55"	0.358828276860115	0.977302929726045
"G56"	0.863460757741085	0.993700725224854
"G57"	0.644475655954588	0.993700725224854
"G58"	0.619906396885446	0.993700725224854
"G59"	0.698729045579803	0.993700725224854
"G60"	0.184557674014747	0.96302416618315
"G61"	NA	NA
"G62"	0.114087731873219	0.93863088495694
"G63"	0.42145134564834	0.977302929726045
"G64"	0.734587608306055	0.993700725224854
"G65"	0.78771378331727	0.993700725224854
"G66"	0.406491739721849	0.977302929726045
"G67"	0.879742716952112	0.993700725224854
"G68"	0.778403093271991	0.993700725224854
"G69"	0.695811040859536	0.993700725224854
"G70"	0.993168438674175	0.993700725224854
"G71"	0.563127279519964	0.993700725224854
"G72"	0.563515392592762	0.993700725224854
"G73"	0.993700725224854	0.993700725224854
"G74"	0.950651410318628	0.993700725224854
"G75"	0.880740419989035	0.993700725224854
"G76"	0.930500089780626	0.993700725224854
"G77"	0.161628841249726	0.96302416618315
"G78"	0.0729934726947272	0.79078835024297
"G79"	0.4771894212695	0.993700725224854
"G80"	0.0537727695260403	0.79078835024297
"G81"	0.809543168660339	0.993700725224854
"G82"	0.194382054501872	0.96302416618315
"G83"	0.55084571825499	0.993700725224854
"G84"	0.627831017354037	0.993700725224854
"G85"	0.82061129955072	0.993700725224854
"G86"	0.590475224354619	0.993700725224854
"G87"	0.00513050620795108	0.79078835024297
"G88"	0.284083717337118	0.977302929726045
"G89"	0.75790552932054	0.993700725224854
"G90"	0.207614093267517	0.96302416618315
"G91"	0.966309620255398	0.993700725224854
"G92"	0.048640121920373	0.79078835024297
"G93"	0.776401255147683	0.993700725224854
"G94"	0.0575712056837078	0.79078835024297
"G95"	NA	NA
"G96"	0.0302135889240438	0.79078835024297
"G97"	0.91291553811917	0.993700725224854
"G98"	0.305947671009874	0.977302929726045
"G99"	0.557129954349138	0.993700725224854
"G100"	0.82721755751388	0.993700725224854
"G101"	0.348707942646595	0.977302929726045
"G102"	0.0394515809172137	0.79078835024297
"G103"	0.516081022122783	0.993700725224854
"G104"	0.00934042075218154	0.79078835024297
"G105"	0.209739546760857	0.96302416618315
"G106"	NA	NA
"G107"	0.222553053669194	0.96302416618315
"G108"	0.908388198017993	0.993700725224854
"G109"	0.52591408411137	0.993700725224854
"G110"	0.676978184725446	0.993700725224854
"G111"	0.703645004901085	0.993700725224854
"G112"	0.299030263620641	0.977302929726045
"G113"	0.523288384029051	0.993700725224854
"G114"	NA	NA
"G115"	0.368886963977967	0.977302929726045
"G116"	0.753922022057247	0.993700725224854
"G117"	NA	NA
"G118"	NA	NA
"G119"	0.0224123453320183	0.79078835024297
"G120"	0.735279689629119	0.993700725224854
"G121"	0.929041892177604	0.993700725224854
"G122"	0.620769425451151	0.993700725224854
"G123"	0.534757722051241	0.993700725224854
"G124"	0.447341680813905	0.993700725224854
"G125"	0.618320487930961	0.993700725224854
"G126"	NA	NA
"G127"	0.620568560136801	0.993700725224854
"G128"	0.98338303870039	0.993700725224854
"G129"	0.0597444674776057	0.79078835024297
"G130"	0.404537594711901	0.977302929726045
"G131"	0.544993190881233	0.993700725224854
"G132"	0.405501736087804	0.977302929726045
"G133"	NA	NA
"G134"	0.190290269117861	0.96302416618315
"G135"	0.379793941873995	0.977302929726045
"G136"	0.148549421723910	0.96302416618315
"G137"	0.677097805752700	0.993700725224854
"G138"	0.821422139501879	0.993700725224854
"G139"	0.970511753598231	0.993700725224854
"G140"	0.822310011826	0.993700725224854
"G141"	0.939118223044095	0.993700725224854
"G142"	0.229970970135589	0.968017339407945
"G143"	0.84671874235898	0.993700725224854
"G144"	0.488256802222035	0.993700725224854
"G145"	0.529464751042011	0.993700725224854
"G146"	0.221766980526199	0.96302416618315
"G147"	0.546701190882709	0.993700725224854
"G148"	0.223464171158521	0.96302416618315
"G149"	0.0882138701237899	0.79078835024297
"G150"	0.257896957658531	0.977302929726045
"G151"	0.404263129184449	0.977302929726045
"G152"	0.129461838365041	0.96302416618315
"G153"	0.0814796009837024	0.79078835024297
"G154"	0.0734718673445888	0.79078835024297
"G155"	0.61597913570652	0.993700725224854
"G156"	0.417678670443996	0.977302929726045
"G157"	0.29656562567599	0.977302929726045
"G158"	NA	NA
"G159"	0.78428292967101	0.993700725224854
"G160"	0.867183035456099	0.993700725224854
"G161"	0.613041042438089	0.993700725224854
"G162"	0.211536991784507	0.96302416618315
"G163"	0.807533572524832	0.993700725224854
"G164"	NA	NA
"G165"	0.492993333475574	0.993700725224854
"G166"	0.672236900776908	0.993700725224854
"G167"	0.396382429375957	0.977302929726045
"G168"	0.753929013368593	0.993700725224854
"G169"	0.135744867308255	0.96302416618315
"G170"	0.817546341089767	0.993700725224854
"G171"	0.300259753160020	0.977302929726045
"G172"	0.416784254908522	0.977302929726045
"G173"	NA	NA
"G174"	0.98743117708298	0.993700725224854
"G175"	0.750022064405348	0.993700725224854
"G176"	0.426557632311368	0.977302929726045
"G177"	0.917581130263481	0.993700725224854
"G178"	0.412887606220386	0.977302929726045
"G179"	0.955741461826913	0.993700725224854
"G180"	0.0645879585512415	0.79078835024297
"G181"	0.454326945164	0.993700725224854
"G182"	0.489186308565154	0.993700725224854
"G183"	0.0917489246138253	0.79078835024297
"G184"	0.767846473064343	0.993700725224854
"G185"	0.929628200613121	0.993700725224854
"G186"	0.174244322190621	0.96302416618315
"G187"	0.394202511733381	0.977302929726045
"G188"	0.268319595101456	0.977302929726045
"G189"	0.0770494380831539	0.79078835024297
"G190"	0.912345433941987	0.993700725224854
"G191"	0.376099237121909	0.977302929726045
"G192"	0.400653489079432	0.977302929726045
"G193"	0.893237997313796	0.993700725224854
"G194"	0.74288277858058	0.993700725224854
"G195"	0.181974593468745	0.96302416618315
"G196"	0.386338802741641	0.977302929726045
"G197"	0.899301974914501	0.993700725224854
"G198"	0.876765346133347	0.993700725224854
"G199"	0.270248964514845	0.977302929726045
"G200"	0.704180167231777	0.993700725224854
