"G1DilMean"	"G2DilMean"	"Y1DilMean"	"Y2DilMean"	"R1DilMean"	"R2DilMean"	"Diagnosis"	"PredictedDiagnosis"
0.0166184871428571	0.0094023	0.0102711028571429	0.00533637428571429	0.0396066	0.0308825142857143	T2	T2
0.011153092	0.017588829	0.01491464	0.00576675	0.07078597	0.023575	T2	T2
0.0156257925	0.0234748833333333	0.0142318741666667	0.00667026083333333	0.0522102583333333	0.0195197566666667	T2	T2
0.00804575428571429	0.0152120142857143	0.0103520671428571	0.00548478857142857	0.041518	0.0231805857142857	T2	T2
0.015549884375	0.018740088125	0.01400669125	0.010170125625	0.0706952	0.023811335	T2	T2
0.00617523472972973	0.00871941835135135	0.0890396162162162	0.00373180689189189	0.0261855081081081	0.00802146486486486	M1	M1
0.00620360875	0.0092469965	0.0966087625	0.006371559	0.027373185	0.00789153825	M1	M1
0.0050288253125	0.00702873375	0.101134678125	0.0094721321875	0.0348464875	0.007592373125	M1	M1
0.00568192576923077	0.00858432376923077	0.0823799346153846	0.0127787238461538	0.0390205384615385	0.0169713896153846	M1	M1
0.0057214425	0.00890869857142857	0.0861343321428571	0.0132204817857143	0.0468994857142857	0.0170910575	M1	M1
