"File"	"G1DilMean"	"G2DilMean"	"Y1DilMean"	"Y2DilMean"	"R1DilMean"	"R2DilMean"	"Diagnosis"
"1001.png"	"0.018504458"	"0.023696879"	"0.0161641"	"0.013808521"	"0.07327876"	"0.04533316"	"T2"
"1011.png"	"0.0106470463636364"	"0.0138245127272727"	"0.0113258009090909"	"0.00510257636363636"	"0.0521262090909091"	"0.0228550090909091"	"T2"
"1013.png"	"0.01121370875"	"0.01340132075"	"0.012943483125"	"0.006264143125"	"0.05885274375"	"0.018933246875"	"T2"
"1015.png"	"0.017151521875"	"0.02361230875"	"0.0181842125"	"0.01203977375"	"0.09807141875"	"0.02606835"	"T2"
"1017.png"	"0.008178225"	"0.01505943875"	"0.0385222125"	"0.00295989875"	"0.0723761625"	"0.0251175375"	"T2"
"1019.png"	"0.00621548107941176"	"0.00927596202647059"	"0.0980124264705882"	"0.00492850382352941"	"0.0235104"	"0.0103323447058824"	"M1"
"1021.png"	"0.00567322166666667"	"0.00799745766666667"	"0.10716398"	"0.00756032466666667"	"0.02968756"	"0.00716502633333333"	"M1"
"1023.png"	"0.00418059878"	"0.006218520132"	"0.055917472"	"0.00866719112"	"0.0269054864"	"0.0081711952"	"M1"
"1025.png"	"0.005748201"	"0.00915650133333333"	"0.0945723533333333"	"0.02189477"	"0.05723482"	"0.020164818"	"M1"
"1027.png"	"0.00623796333333333"	"0.00829462285714286"	"0.0795976333333333"	"0.00703870880952381"	"0.0361907857142857"	"0.0113893578571429"	"M1"
"1030.png"	"0.005301894"	"0.016264505"	"0.05454099"	"0.011153552"	"0.04536365"	"0.012144223"	"N1"
"1033.png"	"0.00453349090909091"	"0.0147531145454545"	"0.0462070181818182"	"0.00677667909090909"	"0.0423757545454545"	"0.0173884086363636"	"N1"
"1035.png"	"0.00466330071428571"	"0.0132327692857143"	"0.0796221285714286"	"0.00684177857142857"	"0.0572370857142857"	"0.0198936392857143"	"N1"
"1037.png"	"0.002074234"	"0.002205784"	"0.02746402"	"0.0009846506"	"0.011996898"	"0.02599564"	"N1"
"1051.png"	"0.01266208"	"0.0177443538461538"	"0.0301644076923077"	"0.000567398923076923"	"0.0380781153846154"	"0.0225383384615385"	"T2"
"1053.png"	"0.017407313"	"0.027856916"	"0.037230509"	"0.00113675767"	"0.063692045"	"0.018456782"	"T2"
"1055.png"	"0.00895502"	"0.018324345"	"0.034718025"	"0.00129540658333333"	"0.047988325"	"0.0224500808333333"	"T2"
"1057.png"	"0.0305790583333333"	"0.0221709166666667"	"0.0286143"	"0.00035643375"	"0.0362458833333333"	"0.0149385516666667"	"T2"
"1061.png"	"0.0055763916"	"0.0067823118"	"0.06977536"	"0.00259145"	"0.009386054"	"0.0029527358"	"N1"
"1063.png"	"0.00303300128571429"	"0.00385139914285714"	"0.0669181714285714"	"0.009287166"	"0.00941376714285714"	"0.00177907567142857"	"N1"
"1065.png"	"0.00323589142857143"	"0.00313510857142857"	"0.0445832642857143"	"0.0154209507142857"	"0.03356045"	"0.0190314607142857"	"N1"
"1067.png"	"0.00220358833333333"	"0.00163148916666667"	"0.0411705333333333"	"0.0144566133333333"	"0.0315890333333333"	"0.0245604833333333"	"N1"
"1069.png"	"0.00206546"	"0.00182505"	"0.0561444"	"0.00858499"	"0.0277512"	"0.016818245"	"N1"
"1083.png"	"0.0064649021875"	"0.00896226375"	"0.066427378125"	"0.0189764740625"	"0.048158159375"	"0.0131566503125"	"M1"
"1085.png"	"0.0045930085"	"0.00667806"	"0.050140175"	"0.012906525"	"0.02946529"	"0.0177541785"	"M1"
"1087.png"	"0.00872453352941176"	"0.0133549864705882"	"0.0722927617647059"	"0.0302868941176471"	"0.0599138617647059"	"0.0256547823529412"	"M1"
"1089.png"	"0.00684707578947368"	"0.0104880973684211"	"0.0707656263157895"	"0.0234028736842105"	"0.0527921842105263"	"0.0285030052631579"	"M1"
"1091.png"	"0.00372269818181818"	"0.00380318181818182"	"0.0523976818181818"	"0.00402334745454545"	"0.0330078127272727"	"0.0213080818181818"	"M1"
"1101.png"	"0.0166237178571429"	"0.0265393107142857"	"0.03924827"	"0.00205453646428571"	"0.0424908285714286"	"0.0288720635714286"	"T2"
"1103.png"	"0.0572669894736842"	"0.0395272052631579"	"0.0639349894736842"	"0.00454162957894737"	"0.0585798210526316"	"0.0282527210526316"	"T2"
"1105.png"	"0.025589508"	"0.0308436866666667"	"0.0448114333333333"	"0.0019772548"	"0.0359937266666667"	"0.02715108"	"T2"
"1107.png"	"0.0205079405263158"	"0.0227301631578947"	"0.0389965578947368"	"0.000859282473684211"	"0.0338252210526316"	"0.0200411152631579"	"T2"
"1110.png"	"0.0116981446153846"	"0.0103620052307692"	"0.0232181230769231"	"0.00136097060769231"	"0.0298942392307692"	"0.00406730415384615"	"T2"
"1112.png"	"0.0216785958823529"	"0.0245074588235294"	"0.0336191764705882"	"0.000961025882352941"	"0.0377741058823529"	"0.0124948347058824"	"T2"
"1114.png"	"0.0161531966666667"	"0.02722678926"	"0.0287432213333333"	"0.00062577492"	"0.0246689933333333"	"0.01065354652"	"T2"
"1116.png"	"0.013248333125"	"0.029966419375"	"0.04408075"	"0.002570530875"	"0.03343229375"	"0.01854291875"	"T2"
"1118.png"	"0.0359274809523809"	"0.0287483380952381"	"0.0468908761904762"	"0.00143503338095238"	"0.0466470476190476"	"0.0218926276190476"	"T2"
"1122.png"	"0.004107915"	"0.0252819375"	"0.051464825"	"0.003403803125"	"0.04256225625"	"0.03155720625"	"N1"
"1124.png"	"0.00662657"	"0.0290713882352941"	"0.0711335176470588"	"0.00734636117647059"	"0.0681878647058824"	"0.0320909941176471"	"N1"
"1126.png"	"0.0058782375"	"0.01645985"	"0.058192725"	"0.0031097525"	"0.039721025"	"0.02780634"	"N1"
"1128.png"	"0.00474579666666667"	"0.0153082533333333"	"0.058593125"	"0.00458055166666667"	"0.0442230833333333"	"0.0206692525"	"N1"
"1131.png"	"0.0050514785"	"0.0245381765"	"0.04545867"	"0.0035412096"	"0.036462485"	"0.013587297"	"N1"
"1133.png"	"0.0140618"	"0.0252484111111111"	"0.0738260444444444"	"0.00341482666666667"	"0.0589834777777778"	"0.00907007666666667"	"N1"
"1135.png"	"0.00509724444444444"	"0.01522379"	"0.0589520777777778"	"0.00609610388888889"	"0.0481201555555556"	"0.0352885888888889"	"N1"
"1137.png"	"0.009847856"	"0.0220793375"	"0.07868021"	"0.0075202495"	"0.07733791"	"0.0158913545"	"N1"
"1139.png"	"0.00756992714285714"	"0.0267212928571429"	"0.0713349928571429"	"0.00845799857142857"	"0.0666407285714286"	"0.0342586642857143"	"N1"
"1141.png"	"0.00482944941176471"	"0.0252995529411765"	"0.0325682"	"0.000970032176470588"	"0.0276567352941176"	"0.0295183352941176"	"N1"
"1159.png"	"0.00562545160526316"	"0.00674060342105263"	"0.0737623157894737"	"0.00630700105263158"	"0.0366658973684211"	"0.00507031026315789"	"M1"
"1161.png"	"0.00721686878048781"	"0.0140721949756098"	"0.0868262878048781"	"0.00719929512195122"	"0.028914212195122"	"0.00411736551219512"	"M1"
"1163.png"	"0.0037055664137931"	"0.00502826082758621"	"0.0716961344827586"	"0.00498170434482759"	"0.0250876593103448"	"0.00330249310344828"	"M1"
"1165.png"	"0.00372902026666667"	"0.0069446451"	"0.0574793333333333"	"0.00344125503333333"	"0.022638811"	"0.00302915736666667"	"M1"
"1167.png"	"0.00711053137931035"	"0.0237720962068966"	"0.0544303551724138"	"0.00191164210344828"	"0.0320014310344828"	"0.0117057762068966"	"M1"
"1169.png"	"0.00638100516129032"	"0.0304060935483871"	"0.0621857032258065"	"0.00284670696774194"	"0.0472482225806452"	"0.0119452064516129"	"M1"
"1171.png"	"0.00699420407407407"	"0.0235067255555556"	"0.0656577444444444"	"0.00791173518518518"	"0.078983437037037"	"0.0225095466666667"	"M1"
"1173.png"	"0.00946301333333333"	"0.0320946171794872"	"0.0584592487179487"	"0.00890959641025641"	"0.0811913794871795"	"0.0216770123076923"	"M1"
"1175.png"	"0.0107527647058824"	"0.0485796117647059"	"0.0625398647058824"	"0.0120395817647059"	"0.0660639529411765"	"0.03762865"	"M1"
"1177.png"	"0.00829121"	"0.0387478459459459"	"0.052620227027027"	"0.00559174783783784"	"0.0373573702702703"	"0.0218868997297297"	"M1"
"1230.png"	"0.0595114086956522"	"0.0274233391304348"	"0.0578162173913043"	"0.00091571752173913"	"0.0519328956521739"	"0.0187687165217391"	"T2"
"1232.png"	"0.0668071515151515"	"0.0277880657575758"	"0.051591533030303"	"0.000855863151515152"	"0.0504627354545455"	"0.015237406969697"	"T2"
"1234.png"	"0.0332899129166667"	"0.02389069375"	"0.0407402083333333"	"0.000505410125"	"0.0348294258333333"	"0.0174398604166667"	"T2"
"1236.png"	"0.03862386875"	"0.033493015"	"0.039809325"	"0.0003800337"	"0.0344586"	"0.0192699525"	"T2"
"1238.png"	"0.0284381153846154"	"0.0173140869230769"	"0.0380524076923077"	"0.000458546615384615"	"0.0334992769230769"	"0.0146916130769231"	"T2"
"1240.png"	"0.050607644"	"0.03377104"	"0.047790096"	"0.000411686148"	"0.034986044"	"0.0206914428"	"T2"
"1242.png"	"0.0111487435714286"	"0.0243888"	"0.04839085"	"0.00122158457142857"	"0.0356505714285714"	"0.0244286471428571"	"N1"
"1244.png"	"0.009527079"	"0.02310475"	"0.06378541"	"0.0021816216"	"0.03510171"	"0.03694194"	"N1"
"1246.png"	"0.011146778"	"0.020453"	"0.05432523"	"0.0011726685"	"0.04072261"	"0.0290322"	"N1"
"1248.png"	"0.00841211142857143"	"0.0143621114285714"	"0.0691707285714286"	"0.00275956428571429"	"0.0344130142857143"	"0.0363078857142857"	"N1"
"1250.png"	"0.012614596"	"0.02159209"	"0.05738549"	"0.0017210403"	"0.02806868"	"0.016381191"	"N1"
"1252.png"	"0.00970271807692308"	"0.0129970026923077"	"0.0624734807692308"	"0.000782824615384615"	"0.0718086346153846"	"0.0191386688461538"	"M1"
"1254.png"	"0.0126719460909091"	"0.0202967865454545"	"0.0688200272727273"	"0.00167825793939394"	"0.0670554727272727"	"0.0207214606060606"	"M1"
"1256.png"	"0.0146592396551724"	"0.0249791610344828"	"0.0664129172413793"	"0.00215745765517241"	"0.0530809213793103"	"0.0335240275862069"	"M1"
"1258.png"	"0.0160500126666667"	"0.0258612366666667"	"0.0785095533333333"	"0.00214717316666667"	"0.07687987"	"0.0248786766666667"	"M1"
"1260.png"	"0.0133631846666667"	"0.0271272733333333"	"0.0737057866666667"	"0.00259954866666667"	"0.043869922"	"0.0282718866666667"	"M1"
"1278.png"	"0.00671945904761905"	"0.0366411047619048"	"0.0313201904761905"	"0.0139481638095238"	"0.0324189523809524"	"0.0373404523809524"	"T0"
"1280.png"	"0.0088784625"	"0.033796093"	"0.030283275"	"0.0087026235"	"0.03691615"	"0.0254412955"	"T0"
"1282.png"	"0.00596469789473684"	"0.0322632421052632"	"0.0218059852631579"	"0.00853996368421053"	"0.0268861047368421"	"0.02436615"	"T0"
"1284.png"	"0.00869267782608696"	"0.0358689886956522"	"0.0219719217391304"	"0.0114952469565217"	"0.0263879652173913"	"0.0328211256521739"	"T0"
"1286.png"	"0.005294505"	"0.0280851383333333"	"0.0156867733333333"	"0.00644908722222222"	"0.0161968605555556"	"0.0143725738888889"	"T0"
"1288.png"	"0.00540011571428571"	"0.0369793642857143"	"0.02543485"	"0.0102251014285714"	"0.0275268928571429"	"0.0323800928571429"	"T0"
"1290.png"	"0.00771420967741935"	"0.0304661422580645"	"0.0279305483870968"	"0.0155511770967742"	"0.053619564516129"	"0.0288033125806452"	"T0"
"1292.png"	"0.00739790416666667"	"0.0332680416666667"	"0.0271129791666667"	"0.014930975"	"0.0488107583333333"	"0.0404455233333333"	"T0"
"1295.png"	"0.00746460111111111"	"0.0348668888888889"	"0.0293365555555556"	"0.0193877866666667"	"0.0497445944444444"	"0.0527569222222222"	"T0"
"1297.png"	"0.0073324368"	"0.0266619964"	"0.027152648"	"0.019593424"	"0.061511788"	"0.0276677308"	"T0"
"1299.png"	"0.0067726425"	"0.0306975583333333"	"0.0291907083333333"	"0.0140650979166667"	"0.0412049083333333"	"0.03605570375"	"T0"
"1301.png"	"0.00707757733333333"	"0.0318613313333333"	"0.02813023"	"0.0186262343333333"	"0.0412985366666667"	"0.0421679456666667"	"T0"
"1303.png"	"0.0138289221428571"	"0.0107568564285714"	"0.0522781285714286"	"0.0320866571428571"	"0.0490206"	"0.0226899285714286"	"T2"
"1305.png"	"0.009701803"	"0.008125934"	"0.03055865"	"0.03850206"	"0.04981987"	"0.030923428"	"T2"
"1307.png"	"0.003211273125"	"0.006045176875"	"0.01779738125"	"0.01336268875"	"0.016605413125"	"0.011458376875"	"N1"
"1316.png"	"0.00213996568"	"0.0266834472"	"0.037363748"	"0.018879248"	"0.02277462"	"0.029279336"	"T0"
"1318.png"	"0.00273055166666667"	"0.0283822291666667"	"0.0432059833333333"	"0.0229968625"	"0.0253961416666667"	"0.0283608"	"T0"
"1321.png"	"0.0105266963333333"	"0.02201244"	"0.05073937"	"0.03050655"	"0.0206110466666667"	"0.0391622266666667"	"T0"
"1323.png"	"0.0067525404"	"0.0157740664"	"0.0416486"	"0.030347392"	"0.0211201576"	"0.0279978108"	"T0"
"1325.png"	"0.0069045565"	"0.0176925035"	"0.041525695"	"0.030359545"	"0.02216423"	"0.030639195"	"T0"
"1327.png"	"0.00838671592592593"	"0.0185285933333333"	"0.0415926296296296"	"0.0265065814814815"	"0.0233091518518519"	"0.0305135059259259"	"T0"
"1329.png"	"0.0079467325"	"0.0189861989285714"	"0.0384205964285714"	"0.0259999214285714"	"0.0245009892857143"	"0.0387667092857143"	"T0"
"1338.png"	"0.0143470119354839"	"0.0254391912903226"	"0.0469519580645161"	"0.0215169387096774"	"0.0285909838709677"	"0.0374418967741935"	"T0"
"1340.png"	"0.00878796666666667"	"0.0163409051851852"	"0.0382296518518518"	"0.0199420851851852"	"0.0248572333333333"	"0.0256024985185185"	"T0"
"1342.png"	"0.00899360235294118"	"0.0229455941176471"	"0.029953"	"0.0100893894117647"	"0.0162596294117647"	"0.0155395211764706"	"T0"
"1344.png"	"0.0133854341025641"	"0.0294349051282051"	"0.036014041025641"	"0.0256647307692308"	"0.0218355461538462"	"0.0597488384615385"	"T0"
"1346.png"	"0.00853818"	"0.015346264"	"0.0291321"	"0.0169623335"	"0.01646112"	"0.0288672705"	"T0"
"1348.png"	"0.0132083513636364"	"0.0255584009090909"	"0.0449493409090909"	"0.0298516818181818"	"0.0228138227272727"	"0.0495268"	"T0"
"1350.png"	"0.0134722221052632"	"0.0238677631578947"	"0.0525137578947368"	"0.0330567684210526"	"0.0288828105263158"	"0.0495920210526316"	"T0"
"1352.png"	"0.0130996515"	"0.01314596445"	"0.04833241"	"0.0213038475"	"0.023429625"	"0.0187756485"	"T0"
"1354.png"	"0.0126146908695652"	"0.0255198869565217"	"0.0533795217391304"	"0.0271118826086957"	"0.0281730347826087"	"0.0318137695652174"	"T0"
"1356.png"	"0.00225385388"	"0.00633905639"	"0.00120820655"	"0.00068410128"	"0.00023212849"	"0.0076147167"	"T0"
"1358.png"	"0.0040062083"	"0.00804954076666667"	"0.00420480055555556"	"0.00136059572222222"	"0.005500713"	"0.0205907883333333"	"T0"
"1360.png"	"0.00411152763333333"	"0.00734674776111111"	"0.00482718888888889"	"0.0013633505"	"0.0112807988888889"	"0.0175311172222222"	"T0"
"1362.png"	"0.00380585198888889"	"0.00648999553333333"	"0.0101356066666667"	"0.00256471444444444"	"0.0081172"	"0.0165303044444444"	"T0"
"1364.png"	"0.00590300854054054"	"0.0100547117567568"	"0.00329744675675676"	"0.00156735262162162"	"0.0024445147027027"	"0.0243027589189189"	"T0"
"1367.png"	"0.00670157107142857"	"0.0114981871428571"	"0.0596025285714286"	"0.0176411767857143"	"0.0257437921428571"	"0.01768713"	"M1"
"1369.png"	"0.00610150294117647"	"0.0161023094117647"	"0.0561183058823529"	"0.0342096941176471"	"0.0305516529411765"	"0.0291540117647059"	"M1"
"1371.png"	"0.00578694232"	"0.01614568372"	"0.0764809"	"0.019165664"	"0.0242748876"	"0.0140890292"	"M1"
"1373.png"	"0.007649536"	"0.0157674193333333"	"0.0654373866666667"	"0.0231229776666667"	"0.03834124"	"0.0212595043333333"	"M1"
"1375.png"	"0.00621997238095238"	"0.0116143"	"0.0771032333333333"	"0.018963019047619"	"0.0187403904761905"	"0.013757240952381"	"M1"
"1377.png"	"0.01200344"	"0.0127904617647059"	"0.0836130764705882"	"0.0464191058823529"	"0.0456251352941176"	"0.0238872117647059"	"M1"
"1379.png"	"0.00966921315789474"	"0.00866374789473684"	"0.0854901421052632"	"0.0350793421052632"	"0.0402786421052632"	"0.0217198931578947"	"M1"
"1381.png"	"0.00859016782608696"	"0.010578067826087"	"0.0805268043478261"	"0.00716953260869565"	"0.0196239495652174"	"0.0122636886956522"	"M1"
"1383.png"	"0.0109459155172414"	"0.00736980917241379"	"0.120126120689655"	"0.0374464620689655"	"0.0458181068965517"	"0.020343994137931"	"M1"
"1385.png"	"0.0123337042424242"	"0.00769411427272727"	"0.115139448484848"	"0.0393447666666667"	"0.0464801303030303"	"0.0125531309090909"	"M1"
"1387.png"	"0.0122059137037037"	"0.0192347496296296"	"0.0588364666666667"	"0.0284194037037037"	"0.0312760037037037"	"0.0264676407407407"	"M1"
"1389.png"	"0.00902076538461538"	"0.00725560538461538"	"0.0794735269230769"	"0.0272670461538462"	"0.0354823961538462"	"0.0116773676923077"	"M1"
"1391.png"	"0.0135489496153846"	"0.00845346346153846"	"0.0988870615384615"	"0.0403799038461538"	"0.0225086503846154"	"0.00659632269230769"	"M1"
"1393.png"	"0.00928538571428571"	"0.0102218021428571"	"0.0974298142857143"	"0.0389236214285714"	"0.0295066071428571"	"0.0236323"	"M1"
"1402.png"	"0.0845948037037037"	"0.0243790922222222"	"0.163608962962963"	"1.54055148148148e-05"	"0.0402944"	"0.0249863666666667"	"T2"
"1404.png"	"0.0392930090909091"	"0.0203579709090909"	"0.0958539272727273"	"1.84902090909091e-05"	"0.0158671890909091"	"0.01251307"	"T2"
"1406.png"	"0.0385612866666667"	"0.02053292"	"0.114053066666667"	"1.63595533333333e-05"	"0.017068824"	"0.0140695526666667"	"T2"
"1408.png"	"0.0179328363636364"	"0.00883602818181818"	"0.188984181818182"	"1.58031727272727e-05"	"0.0474363545454545"	"0.0318454545454545"	"T2"
"1410.png"	"0.03851515"	"0.0108100983333333"	"0.213817166666667"	"1.56153833333333e-05"	"0.0460705333333333"	"0.0630563833333333"	"T2"
"1412.png"	"0.0213199714285714"	"0.0241515142857143"	"0.0493302714285714"	"0.0441774714285714"	"0.0761307142857143"	"0.0528959857142857"	"T2"
"1414.png"	"0.0351046833333333"	"0.0178746141666667"	"0.0507160083333333"	"0.0476715583333333"	"0.0900534916666667"	"0.060028575"	"T2"
"1416.png"	"0.06947877"	"0.0181341147368421"	"0.0596469526315789"	"0.0813484368421053"	"0.115423026315789"	"0.0486862210526316"	"T2"
"1418.png"	"0.0200837666666667"	"0.0222123777777778"	"0.0510534"	"0.0506318444444444"	"0.0531387222222222"	"0.0496371444444444"	"T2"
"1420.png"	"0.0214314571428571"	"0.0167022785714286"	"0.0457119285714286"	"0.0359356"	"0.0339664142857143"	"0.0416673285714286"	"T2"
"1452.png"	"0.0185415677777778"	"0.0182900844444444"	"0.0461961555555556"	"0.0414346111111111"	"0.0370461777777778"	"0.0205974444444444"	"N1"
"1454.png"	"0.010258123"	"0.014012476"	"0.03289243"	"0.02589894"	"0.0259025"	"0.02161199"	"N1"
"1456.png"	"0.010873178125"	"0.012396951875"	"0.03787173125"	"0.03460095625"	"0.0357268375"	"0.01643152625"	"N1"
"1458.png"	"0.0149847242857143"	"0.0165070833333333"	"0.0499883333333333"	"0.0379044095238095"	"0.0459685142857143"	"0.016325779047619"	"N1"
"1460.png"	"0.01318716"	"0.0146008411111111"	"0.0344762444444444"	"0.0442677666666667"	"0.0205587666666667"	"0.0301146455555556"	"N1"
"1462.png"	"0.00451652124210526"	"0.00326636044736842"	"0.0299420684210526"	"0.0171938868421053"	"0.0278377521052632"	"0.0088522542631579"	"N1"
"1464.png"	"0.0181374554545455"	"0.0157988204545455"	"0.0618796909090909"	"0.0369095636363636"	"0.0525661318181818"	"0.0237546181818182"	"N1"
"1466.png"	"0.0185442466666667"	"0.0158786011111111"	"0.05864495"	"0.0451320333333333"	"0.0638963555555556"	"0.0299918166666667"	"N1"
"1468.png"	"0.0125369192307692"	"0.0137309307692308"	"0.0422134538461538"	"0.0398625230769231"	"0.0429882769230769"	"0.0276064084615385"	"N1"
"1470.png"	"0.00533937642857143"	"0.0102466135714286"	"0.0221355428571429"	"0.00959556285714286"	"0.00675922928571429"	"0.00939687571428571"	"N1"
"1472.png"	"0.00563736833333333"	"0.0034281975"	"0.027392575"	"0.0149175433333333"	"0.0151874575"	"0.00892780166666667"	"N1"
"1474.png"	"0.009461865625"	"0.00500664"	"0.0300450375"	"0.0256493875"	"0.036619159375"	"0.01791649875"	"N1"
"1476.png"	"0.00919836086956522"	"0.00430799695652174"	"0.0289602913043478"	"0.0408733739130435"	"0.0444597"	"0.0259581913043478"	"N1"
"1478.png"	"0.00388198692857143"	"0.00209353735"	"0.0160070992857143"	"0.0135535585714286"	"0.0159938478571429"	"0.0167824571428571"	"N1"
"1480.png"	"0.00702135058823529"	"0.00420584882352941"	"0.0216486529411765"	"0.0288741470588235"	"0.0347481"	"0.0254089017647059"	"N1"
"1482.png"	"0.00327580476923077"	"0.00139746284615385"	"0.0169681923076923"	"0.00648701846153846"	"0.00168967176923077"	"0.00312839230769231"	"N1"
"1558.png"	"0.000314741485185185"	"0.000306014207407407"	"0.0229703074074074"	"0.0070508737037037"	"0.00303176051851852"	"0.00305691659259259"	"N1"
"1560.png"	"0.00032187460625"	"0.000283448525"	"0.02537123125"	"0.009290996875"	"0.0041587940625"	"0.0029063551875"	"N1"
"1562.png"	"0.00074188159375"	"0.000439892034375"	"0.041095371875"	"0.0150649884375"	"0.0201610134375"	"0.00670247375"	"N1"
"1571.png"	"0.015573471"	"0.00170335225"	"0.024141545"	"0.028814995"	"0.038945575"	"0.009074984"	"T2"
"1573.png"	"0.04549486875"	"0.008108198125"	"0.02704470625"	"0.0327805625"	"0.03528143125"	"0.01876501125"	"T2"
"1575.png"	"0.0352830380952381"	"0.00904849519047619"	"0.0274263714285714"	"0.0405530761904762"	"0.0397182185714286"	"0.0138603723809524"	"T2"
"1577.png"	"0.0169151061111111"	"0.00458369862222222"	"0.0227375833333333"	"0.0240474444444444"	"0.0304368444444444"	"0.00971957444444444"	"T2"
"1579.png"	"0.023370895"	"0.00693351428571429"	"0.0253685928571429"	"0.0308871357142857"	"0.03135345"	"0.0173764121428571"	"T2"
"1581.png"	"0.0329816570588235"	"0.00292035894117647"	"0.0227088882352941"	"0.0255402617647059"	"0.0280732782352941"	"0.00548659294117647"	"T2"
"1583.png"	"0.0237457872727273"	"0.00239709227272727"	"0.0252924272727273"	"0.0118682431818182"	"0.0222815045454545"	"0.00927553318181818"	"T2"
"1585.png"	"0.0275737266666667"	"0.00414543061111111"	"0.0303031055555556"	"0.0177961555555556"	"0.0360756444444444"	"0.0185545622222222"	"T2"
"1587.png"	"0.0242267370588235"	"0.00376590152941176"	"0.0304144764705882"	"0.0196222352941176"	"0.0262085823529412"	"0.00928198764705882"	"T2"
"1589.png"	"0.0275655846153846"	"0.00431811223076923"	"0.0255271384615385"	"0.0197573692307692"	"0.0144933823076923"	"0.00907891692307692"	"T2"
"1591.png"	"0.00887654906666667"	"0.000758438066666667"	"0.0210768466666667"	"0.0150881886666667"	"0.0124997266666667"	"0.00293192486666667"	"T2"
"1593.png"	"0.008697676875"	"0.0025011050625"	"0.0219839875"	"0.01599875625"	"0.009288565"	"0.0094307875"	"T2"
"1595.png"	"0.00803376333333333"	"0.00360030895238095"	"0.0928080428571429"	"0.0232580428571429"	"0.045285080952381"	"0.0109602314285714"	"M1"
"1597.png"	"0.0058361665483871"	"0.00201099826774194"	"0.0782992"	"0.0204968225806452"	"0.0317221129032258"	"0.00535127774193548"	"M1"
"1599.png"	"0.00554937954545455"	"0.00458383563636364"	"0.0865543090909091"	"0.0196722136363636"	"0.0329030636363636"	"0.0144531322727273"	"M1"
"1601.png"	"0.00701545571428571"	"0.00584040523809524"	"0.0710927571428571"	"0.0147190333333333"	"0.0191964333333333"	"0.02161714"	"M1"
"1603.png"	"0.00622610723076923"	"0.00569456311923077"	"0.0574974461538462"	"0.0135990215384615"	"0.0161787303846154"	"0.01985402"	"M1"
"1605.png"	"0.00351213216666667"	"0.00308847960555556"	"0.0384703333333333"	"0.0114206755555556"	"0.014117355"	"0.00965333111111111"	"M1"
"1607.png"	"0.00510604233333333"	"0.00390594242777778"	"0.0437512833333333"	"0.0132642627777778"	"0.0224914611111111"	"0.0112989527777778"	"M1"
"1609.png"	"0.00685622352941177"	"0.0026861355"	"0.113027279411765"	"0.0195109397058824"	"0.0422550205882353"	"0.00748110411764706"	"M1"
"1611.png"	"0.0041977177037037"	"0.00144347964074074"	"0.100172785185185"	"0.0188899925925926"	"0.033171437037037"	"0.00807174407407407"	"M1"
"1613.png"	"0.00816930666666667"	"0.00836963492592593"	"0.101594392592593"	"0.0191007259259259"	"0.030674562962963"	"0.0139754496296296"	"M1"
"1615.png"	"0.00359074476923077"	"0.00201495905384615"	"0.0483639076923077"	"0.00975816038461538"	"0.015703305"	"0.00607998884615385"	"M1"
"1617.png"	"0.00376277496"	"0.002059243428"	"0.049021076"	"0.0046535036"	"0.0072723732"	"0.00415468872"	"M1"
"1619.png"	"0.00403322384615385"	"0.00275301569230769"	"0.0370986538461538"	"0.00468477923076923"	"0.00382289307692308"	"0.00738087923076923"	"M1"
"1621.png"	"0.00516490078947368"	"0.00186480518421053"	"0.0314428578947368"	"0.0205929894736842"	"0.04929475"	"0.0180205739473684"	"N1"
"1623.png"	"0.00384623625"	"0.00183449125"	"0.0212010375"	"0.0272644875"	"0.01947116125"	"0.0384534"	"N1"
"1625.png"	"0.00343441652173913"	"0.00128980408695652"	"0.0254020608695652"	"0.0148812256521739"	"0.0336494304347826"	"0.0158313482608696"	"N1"
"1627.png"	"0.000494259404166667"	"0.000127341033333333"	"0.023315225"	"0.0117113216666667"	"0.00358242016666667"	"0.00241320733333333"	"N1"
"1629.png"	"0.000413211786666667"	"0.000116141166666667"	"0.02528934"	"0.01775995"	"0.00430345113333333"	"0.005390546"	"N1"
"1631.png"	"0.003104775"	"0.000936669476190476"	"0.0305365904761905"	"0.0149552761904762"	"0.0313686571428571"	"0.0158673176190476"	"N1"
"1633.png"	"0.00216953465"	"0.00066653215"	"0.031382215"	"0.013777909"	"0.03149704"	"0.012055773"	"N1"
"1642.png"	"0.00975932288461539"	"0.00642416380384615"	"0.0433105923076923"	"0.0170017205769231"	"0.0240761826923077"	"0.00688882109615385"	"T0"
"1644.png"	"0.006398966"	"0.0208874456"	"0.041394344"	"0.023298408"	"0.024744448"	"0.0265429432"	"T0"
"1646.png"	"0.00531924071428571"	"0.0211427071428571"	"0.0374654857142857"	"0.0224443857142857"	"0.0195457"	"0.0278352428571429"	"T0"
"1648.png"	"0.00303398652352941"	"0.00684924564705882"	"0.0126215264705882"	"0.00216951505882353"	"0.00288180752941176"	"0.00648894352941176"	"T0"
"1650.png"	"0.00498414"	"0.0176978872"	"0.0113382164"	"0.00211476236"	"0.00258748516"	"0.0158544868"	"T0"
"1652.png"	"0.00427840166666667"	"0.0168120966666667"	"0.0165435322222222"	"0.00321890277777778"	"0.00532100111111111"	"0.0153388238888889"	"T0"
"1654.png"	"0.00529420631578947"	"0.0147057736842105"	"0.0201556684210526"	"0.00439690263157895"	"0.0116908563157895"	"0.0173169126315789"	"T0"
"1656.png"	"0.0046924925"	"0.01263083375"	"0.013429793125"	"0.0030410958125"	"0.008157285"	"0.01860314875"	"T0"
"1658.png"	"0.00198014612105263"	"0.00412948445789474"	"0.00742649052631579"	"0.00100801463157895"	"0.00527743315789474"	"0.00821860757894737"	"T0"
"1660.png"	"0.0030987319375"	"0.00762430258125"	"0.007882775"	"0.0013328265625"	"0.005600376875"	"0.011872628125"	"T0"
"1662.png"	"0.00259014211428571"	"0.00779169596285714"	"0.0160825394285714"	"0.00439995914285714"	"0.0194994174285714"	"0.0141735457142857"	"T0"
"1664.png"	"0.00107749447"	"0.0025421112"	"0.00107281189"	"0.00046288879"	"0.00039386539"	"0.00349137651"	"T0"
"1666.png"	"0.002445265825"	"0.00484670503333333"	"0.00845778666666667"	"0.00160208808333333"	"0.0064056425"	"0.011621496"	"T0"
"1668.png"	"0.00164699271153846"	"0.00647667798846154"	"0.0100336761538462"	"0.0025422685"	"0.00690569346153846"	"0.00864572426923077"	"T0"
"1670.png"	"4.00570705882353e-05"	"0.000175944076470588"	"0.000392389117647059"	"0.000208764626470588"	"0.00147664198529412"	"0.00226221078235294"	"T0"
