"File"	"X"	"Y"	"Brightness"	"Gyration radius2"
"100826-002_spine1-D1R.tif"	12.4901	14.4356	0.000808905	0.0148551
"100826-002_spine1-D1R.tif"	13.0996	20.1816	0.00052863	0.00961167
"100826-002_spine1-D1R.tif"	13.0895	25.4428	0.00139204	0.0257678
"100826-002_spine1-D1R.tif"	14.3755	29.3194	0.000928478	0.017016
"100826-002_spine1-D1R.tif"	25.3498	25.3996	0.00206676	0.0389756
"100826-002_spine1-D1R.tif"	32.2625	27.2862	0.00222536	0.0406831
"100826-002_spine1-D1R.tif"	68.4486	18.4699	0.00790026	0.144695
"100826-002_spine1-D1R.tif"	76.1283	22.2696	0.00142362	0.0259645
"101027-009_spine1-D1R.tif"	14.3579	60.3129	0.000656506	0.0113235
"101027-009_spine1-D1R.tif"	16.8826	55.3614	0.000515475	0.00960168
"101027-009_spine1-D1R.tif"	22.4321	57.1076	0.000984091	0.0177096
"101027-009_spine1-D1R.tif"	36.1808	34.0782	0.00120526	0.0220391
"101027-009_spine1-D1R.tif"	42.4898	35.3146	0.00231396	0.0416819
"101027-009_spine1-D1R.tif"	44.1128	28.0809	0.00501513	0.0944113
"101027-009_spine1-D1R.tif"	49.3586	28.2599	0.00190035	0.0314254
"101027-009_spine1-D1R.tif"	54.2873	15.3309	0.00145231	0.0269954
"101027-010_spine1-D1R.tif"	21.373	77.2023	0.000601846	0.0110233
"101027-010_spine1-D1R.tif"	26.1181	40.4792	0.000917198	0.0158369
"101027-010_spine1-D1R.tif"	29.3399	34.1994	0.00620974	0.115046
"101027-010_spine1-D1R.tif"	29.4955	59.4556	0.00182421	0.0328692
"101027-010_spine1-D1R.tif"	34.238	76.3483	0.00134763	0.0235957
"101027-010_spine2-D1R.tif"	12.3015	57.387	0.00165756	0.02996
"101027-010_spine2-D1R.tif"	17.0476	43.9827	0.000513837	0.00934122
"101027-010_spine2-D1R.tif"	19.9669	37.0632	0.00106847	0.0198139
"101027-010_spine2-D1R.tif"	21.9986	57.1315	0.00181701	0.033848
"101027-010_spine2-D1R.tif"	23.1316	41.4006	0.00133377	0.0232256
"101027-010_spine2-D1R.tif"	25.964	22.1737	0.000460619	0.00834764
"101027-010_spine2-D1R.tif"	31.3227	67.8976	0.00053523	0.0106007
"101027-010_spine2-D1R.tif"	33.1182	36.4143	0.00135701	0.0239687
"101027-010_spine2-D1R.tif"	33.3347	45.369	0.00696729	0.131229
"101027-010_spine2-D1R.tif"	35.2849	22.3944	0.00551417	0.0995309
"101027-010_spine2-D1R.tif"	41.254	24.2952	0.0023568	0.0417346
"101027-010_spine2-D1R.tif"	41.0259	66.972	0.00412645	0.0805748
"101027-010_spine3-D1R.tif"	19.0284	44.3074	0.0018916	0.035105
"101027-010_spine3-D1R.tif"	20.1659	33.1132	0.000536152	0.00975874
"101027-010_spine3-D1R.tif"	20.3676	58.4362	0.00663887	0.121536
"101027-010_spine3-D1R.tif"	26.1583	52.2791	0.00329317	0.0631611
"101027-010_spine3-D1R.tif"	31.1188	20.1235	0.00401414	0.0757341
"101027-010_spine3-D1R.tif"	33.1609	52.3562	0.000893649	0.0153882
"101027-010_spine4-D1R.tif"	12.3108	87.2405	0.000884723	0.0158714
"101027-010_spine4-D1R.tif"	25.4559	46.4092	0.00138304	0.025417
"101027-010_spine4-D1R.tif"	26.2296	87.9084	0.00138344	0.0267514
"101027-010_spine4-D1R.tif"	29.2107	64.0046	0.00331236	0.0614761
"101027-010_spine4-D1R.tif"	32.1723	25.1933	0.0059209	0.110852
"101027-010_spine4-D1R.tif"	32.1219	55.4534	0.00126357	0.0224363
"101027-010_spine4-D1R.tif"	35.2852	77.3151	0.00124907	0.0232021
"101027-010_spine4-D1R.tif"	35.4258	87.478	0.00134498	0.023738
"101027-010_spine4-D1R.tif"	36.3852	33.3028	0.00058075	0.0104684
"101027-010_spine4-D1R.tif"	40.4329	86.2738	0.000910934	0.0169198
"101028-007_spine1-D1R.tif"	12.2628	12.109	0.00066328	0.012013
"101028-007_spine1-D1R.tif"	18.3351	50.4038	0.00570588	0.104019
"101028-007_spine1-D1R.tif"	24.9848	48.4169	0.00137988	0.0249272
"101028-007_spine1-D1R.tif"	34.4194	15.3865	0.00758634	0.139602
"101028-007_spine1-D1R.tif"	47.2551	24.9721	0.000960827	0.0177073
"101028-007_spine1-D1R.tif"	49.3622	17.3594	0.00103775	0.0197558
"101028-007_spine1-D1R.tif"	55.029	38.9871	0.000819793	0.0151656
"101028-007_spine1-D1R.tif"	56.3334	12.5065	0.00101335	0.0190734
"101028-007_spine1-D1R.tif"	59.1921	16.0053	0.0021039	0.0392533
"101028-009_spine1-D1R.tif"	21.361	33.3644	0.00287872	0.0499896
"101028-009_spine1-D1R.tif"	24.953	52.1893	0.00180737	0.0328331
"101028-009_spine1-D1R.tif"	31.4588	27.3998	0.00766661	0.135408
"101028-009_spine1-D1R.tif"	31.3802	35.373	0.00929914	0.178316
"101028-009_spine1-D1R.tif"	31.1926	43.4316	0.00307185	0.0544221
"101028-009_spine1-D1R.tif"	35.362	55.3365	0.00699809	0.123594
"101028-009_spine1-D1R.tif"	37.3556	29.2749	0.000367196	0.00406622
"101028-009_spine1-D1R.tif"	37.4059	46.4705	0.00176203	0.0327339
"101028-009_spine1-D1R.tif"	37.1982	49.0617	0.00108013	0.0185736
"101028-009_spine1-D1R.tif"	43.003	52.2867	0.000750639	0.0149185
"101028-009_spine1-D1R.tif"	42.1528	77.9895	0.000453525	0.00791152
"101028-009_spine1-D1R.tif"	46.4621	53.3646	0.0053378	0.096198
"101028-009_spine1-D1R.tif"	49.3989	77.9215	0.00142898	0.0266148
"101028-009_spine1-D1R.tif"	51.2586	60.4613	0.0080369	0.15244
"101028-009_spine1-D1R.tif"	51.234	70.4459	0.00688248	0.13267
"101028-009_spine1-D1R.tif"	54.3208	77.9516	0.00499146	0.0914014
"101028-009_spine1-D1R.tif"	61.3875	64.1845	0.00463595	0.0842085
"101028-009_spine1-D1R.tif"	66.2616	74.326	0.00812384	0.155707
"101028-009_spine1-D1R.tif"	67.8868	59.4883	0.00152162	0.0291897
"101028-010_spine1-D1R.tif"	23.4088	30.0467	0.0022627	0.0403663
"101028-010_spine1-D1R.tif"	29.4523	29.2602	0.00305712	0.0547291
"101028-010_spine1-D1R.tif"	53.2999	44.2714	0.00444442	0.0804943
"101028-010_spine1-D1R.tif"	57.0472	42.9311	0.00337698	0.0660867
"101028-010_spine1-D1R.tif"	57.9791	34.2586	0.00208608	0.0394462
"101028-010_spine1-D1R.tif"	64.1843	44.0406	0.00310627	0.0565911
"101028-010_spine1-D1R.tif"	67.4692	31.2711	0.00202831	0.038122
"101028-010_spine1-D1R.tif"	70.4272	31.1323	0.00205302	0.0380486
"101028-011_spine1-D1R.tif"	20.3131	48.008	0.00480762	0.0875805
"101028-011_spine1-D1R.tif"	30.384	42.1681	0.00317544	0.0577232
"101028-011_spine1-D1R.tif"	34.3238	33.2418	0.00181449	0.0331069
"101028-011_spine2-D1R.tif"	16.5087	62.3427	0.00170551	0.0322309
"101028-011_spine2-D1R.tif"	17.4559	43.1622	0.00559891	0.0997595
"101028-011_spine2-D1R.tif"	22.9686	41.3103	0.00202555	0.0365446
"101028-011_spine2-D1R.tif"	24.1247	35.4565	0.00136315	0.0244067
"101028-011_spine2-D1R.tif"	26.0232	22.2973	0.000607655	0.0108281
"101028-011_spine2-D1R.tif"	29.2648	58.5344	0.00105766	0.0191925
