"Well"	"File"	"Edge"	"Length"
"01"	"A01_w2_15ADF48D5BC479534681.tif"	1.0	55.0
"11"	"A11_w2_7BFEFABEB76929850A0B.tif"	3.0	62.0
"21"	"A21_w2_E7359B7DCAADD496A950.tif"	4.0	104.0
"07"	"B07_w2_F3BB43AAA89741699E5F.tif"	11.0	56.0
"03"	"C03_w2_DB6D49562CE075E6FA54.tif"	4.0	113.0
