"ID"	"Merge1"	"Merge2"	"Height"
1	-3	-17	0.217413402965403
2	-10	-15	0.265192449108235
3	-4	-19	0.312213590321537
4	-20	1	0.412046789165111
5	-11	-14	0.497885902534195
6	-12	2	0.501475325009203
7	-6	-18	0.510719702841724
8	-8	-9	0.596249846997101
9	-13	5	0.621150310712248
10	-1	-16	0.642091746665152
11	-7	7	0.665691754933797
12	-2	3	0.748420630346043
13	4	9	0.791716771555353
14	-5	8	0.803680883739603
15	6	13	0.836813468011439
16	11	12	0.841930844532218
17	10	16	0.938819077456106
18	15	17	0.996873608359008
19	14	18	1.15652814197857
