"RowName"	"Column1"	"Column2"	"Column3"	"Column4"	"Column5"	"Column6"	"Column7"	"Column8"	"Column9"	"Column10"	"Column11"	"Column12"
"Column1"	1	-0.0896990662349676	0.00220686865976445	-0.220289388257857	0.0831926099790312	0.175646657331761	0.227992836557132	0.193826921956836	0.0175982909842916	-0.0221420446999232	-0.0360741488030568	0.0170792335450669
"Column2"	-0.0896990662349676	1	0.410470367444055	-0.170587443700402	-0.182509392620656	-0.278716047873637	-0.296530913284467	0.094828544760196	0.367164755704916	-0.0834737670856293	0.122867975282495	-0.285830348201220
"Column3"	0.00220686865976445	0.410470367444055	1	0.0819633323210986	-0.504048050450371	-0.434814268397487	0.103216941789937	0.502824707224927	-0.148055595134451	-0.171359862137006	-0.272770268703000	0.0707505274615206
"Column4"	-0.220289388257857	-0.170587443700402	0.0819633323210986	1	0.0993138233230563	-0.0241265704040692	-0.0565912930229723	-0.334479717440768	0.0223797973548857	0.321629712748677	-0.452406089981155	0.341657876351697
"Column5"	0.0831926099790312	-0.182509392620656	-0.504048050450371	0.0993138233230563	1	0.207873934062719	-0.200717483949967	0.0858629633061398	0.206553048689388	0.0188540972758175	0.108694953757316	-0.0523734606451367
"Column6"	0.175646657331761	-0.278716047873637	-0.434814268397487	-0.0241265704040692	0.207873934062719	1	0.0638761958670671	0.0180531041217659	0.288898869116153	-0.192443075367638	0.308867978705885	0.0739717211268714
"Column7"	0.227992836557132	-0.296530913284467	0.103216941789937	-0.0565912930229723	-0.200717483949967	0.0638761958670671	1	-0.109021331547818	-0.551935673737754	-0.0939964702242352	0.162293962275419	-0.0363770017540015
"Column8"	0.193826921956836	0.094828544760196	0.502824707224927	-0.334479717440768	0.0858629633061398	0.0180531041217659	-0.109021331547818	1	0.0113589030110169	-0.305570212969818	-0.157866626664102	-0.0878041111709733
"Column9"	0.0175982909842916	0.367164755704916	-0.148055595134451	0.0223797973548857	0.206553048689388	0.288898869116153	-0.551935673737754	0.0113589030110169	1	0.0746263981571018	0.0181408559774143	0.0726432401538494
"Column10"	-0.0221420446999232	-0.0834737670856293	-0.171359862137006	0.321629712748677	0.0188540972758175	-0.192443075367638	-0.0939964702242352	-0.305570212969818	0.0746263981571018	1	-0.0836307513127765	0.0402915694640238
"Column11"	-0.0360741488030568	0.122867975282495	-0.272770268703000	-0.452406089981155	0.108694953757316	0.308867978705885	0.162293962275419	-0.157866626664102	0.0181408559774143	-0.0836307513127765	1	-0.305606307297912
"Column12"	0.0170792335450669	-0.285830348201220	0.0707505274615206	0.341657876351697	-0.0523734606451367	0.0739717211268714	-0.0363770017540015	-0.0878041111709733	0.0726432401538494	0.0402915694640238	-0.305606307297912	1
