Value	ValueRev
1	7.0
2	6.5
2	6.5
3	6.0
3	6.0
3	6.0
4	5.5
4	5.5
4	5.5
4	5.5
5	5.0
5	5.0
5	5.0
5	5.0
5	5.0
6	4.5
6	4.5
6	4.5
6	4.5
6	4.5
6	4.5
7	4.0
7	4.0
7	4.0
7	4.0
7	4.0
7	4.0
7	4.0
8	3.5
8	3.5
8	3.5
8	3.5
8	3.5
8	3.5
8	3.5
8	3.5
9	3.0
9	3.0
9	3.0
9	3.0
9	3.0
9	3.0
9	3.0
9	3.0
9	3.0
