"Vertex"	"InDegree"	"OutDegree"	"ClusteringCoeff"	"DegreeCentrality"	"ClosenessCentrality"	"BetweennessCentrality"	"EigenvectorCentrality"	"DegreeCentralityRank"	"ClosenessCentralityRank"	"BetweennessCentralityRank"	"EigenvectorCentralityRank"
"v1"	3	3	0.6666666666666666	3.0	14.0	0.5	0.5230448629711851	0.625	0.375	0.625	0.75
"v2"	2	2	1.0	2.0	15.0	0.0	0.42883055399031345	0.125	0.5	0.0	0.125
"v3"	2	2	1.0	2.0	15.0	0.0	0.42883055399031345	0.125	0.5	0.0	0.125
"v4"	7	7	0.23809523809523808	7.0	9.0	18.0	1.0	1.0	0.0	1.0	1.0
"v5"	2	2	1.0	2.0	15.0	0.0	0.47771352113067306	0.125	0.5	0.0	0.375
"v6"	2	2	1.0	2.0	15.0	0.0	0.47771352113067306	0.125	0.5	0.0	0.375
"v7"	4	4	0.5	4.0	12.0	2.5	0.6966577417290217	0.875	0.125	0.75	0.875
"v8"	3	3	0.3333333333333333	3.0	13.0	7.0	0.5188458999294608	0.625	0.25	0.875	0.625
"v9"	1	1	0.0	1.0	20.0	0.0	0.14608613494183362	0.0	1.0	0.0	0.0
