Sepal.Length	Sepal.Width	Petal.Length	Petal.Width	Species
5.1	3.5	1.4	0.2	setosa
5.4	3.9	1.7	0.4	setosa
5.4	3.7	1.5	0.2	setosa
5.8	4	1.2	0.2	setosa
5.7	4.4	1.5	0.4	setosa
5.4	3.9	1.3	0.4	setosa
5.1	3.5	1.4	0.3	setosa
5.7	3.8	1.7	0.3	setosa
5.1	3.8	1.5	0.3	setosa
5.4	3.4	1.7	0.2	setosa
5.1	3.7	1.5	0.4	setosa
5.1	3.3	1.7	0.5	setosa
5.2	3.5	1.5	0.2	setosa
5.2	3.4	1.4	0.2	setosa
5.4	3.4	1.5	0.4	setosa
5.2	4.1	1.5	0.1	setosa
5.5	4.2	1.4	0.2	setosa
5.5	3.5	1.3	0.2	setosa
5.1	3.4	1.5	0.2	setosa
5.1	3.8	1.9	0.4	setosa
5.1	3.8	1.6	0.2	setosa
5.3	3.7	1.5	0.2	setosa
