ID	Members	Annotation
S1_re	S1_up,S2_up,S3_up	"a_S1_b"
S2_re	S1_up,S2_up,S3_up	"a_S2_b"
S1_union	x1,x2,x3,x4,x5	"abc"
S2_union	x1,x3,x4,x6	"abc"
S1_intsec	x2,x4	NA
S2_intsec	x4	NA
S1_diff1	x1,x3	"S1"
S2_diff1	x1,x6	"S2"
S1_diff2	x5	5
S2_diff2	x3	5
S1_union2	x1,x2,x3,x4,x5	"qwerty"
