Col1	Col2	Col3	Col4
AA	1	ZZZ	file2
AA	3	ZZZ	file1
aa	1	zzz	csv
aA	1	RRR	file1
aa	1	rrr	file1
Bb	4	qqq	csv
bB	2	ppp	csv
cc	5	sss	csv
ee	5	rrr	file22
EE	5	rrr	file2
ff	4	rrr	Col1
Qq	5	rrr	file3
zz	1	ZZZ	file3
