ID	Members
allnames1	S1,S2,S4,[S3]
allnames2	S1,S2,S4,[S3],allnames1
set1	y1,y2,y3
set2	x1,x2,x3,x4,y1,y2
set3	S1,S2
single1	x1,x2,x3,x4
single2	""
union1	x1,x2,x3,x4
union2	x1,x2,x3,x4,x5
union3	x1,x2,x3,x4,x5,x6
union4	x2,x4,x5,x6
intsection1	x1,x2,x3,x4
intsection2	x2,x4
intsection3	x4
intsection4	""
diff1a	x1,x3
diff1b	x5
diff2a	x1,x2,x3
diff2b	x6
diff3a	x2,x5
diff3b	x6
diff4	x1,x3
diff5	x1,x2,x3,x4
diff6	""
freq1	x1,x2,x3,x4,x5,x6
freq2	x2,x4
freq3	x4
freq4	x1,x3,x5,x6
freq5	x1,x2,x3,x5,x6
names1	""
names2	S1
names3	S1,S2,[S3]
names4	S1,freq1,union1
match1	a1,a2
match2	x1,x2,x3
match3	x1,x2,x3
setmatch1	S1,S2,S4
replace1	B,b,b_B,bx
replace2	H--F,H-a-F,H-abc-F
replace3	y1,y2,y3,y4
replace4	y1,y2,y3,y4
expand1	S1,S2
expand2	x1,x3
