"ID"	"Members"	"Type"	"Description"
"Group1_1"	"S1-1A,S1-2A"	"median"	"Description 1: 1"
"Group1_2"	"S2-1B"	"median"	"Description 1: 2"
"Group1_3"	"S3-1A,S3-2B,S3-3C"	"median"	"Description 1: 3"
"Group2"	"S1-1A,S1-2A,S3-1A"	"mean"	"Description 2"
"Group3_A"	"S1-1A,S1-2A,S3-1A"	"mean"	"Description 3"
"Group3_B"	"S2-1B,S3-2B"	"mean"	"Description 3"
"Group3_C"	"S3-3C"	"mean"	"Description 3"
"Ratio1"	"Group1_1,Group2"	"ratio"	"Description 4"
"Ratio2"	"Group1_2,Group2"	"ratio"	"Description 5"
"Ratio3"	"Group1_3,Group2"	"ratio"	"Description 6"
