"ID"	"Members"	"EnrichedValues"	"MI"	"Pval"	"DataLabel"
"split1_subtree"	"leaf12,leaf13,leaf14,leaf15"	"large"	0.540852082973	NA	"Data"
"split1_other"	"leaf0,leaf1,leaf10,leaf11,leaf2,leaf3,leaf4,leaf5,leaf6,leaf7,leaf8,leaf9"	"medium,small"	0.540852082973	NA	"Data"
"split2_subtree"	"leaf0,leaf1,leaf2,leaf3"	"small"	1.0	NA	"Data"
"split2_other"	"leaf10,leaf11,leaf12,leaf13,leaf14,leaf15,leaf4,leaf5,leaf6,leaf7,leaf8,leaf9"	"medium"	1.0	NA	"Data"
