"Mean"	"Median"	"File"
nan	0.282353	"testimg.png"
0.302397	0.305882	"testimg.png"
NA	0.396078	"testimg.png"
0.258824	0.258824	"testimg.png"
0.523529	0.523529	"testimg.png"
-0.41	0.415686	"testimg.png"
0.364706	0.364706	"testimg.png"
0.3e-10	0.364706	"small number"
3e-316	0.364706	"very small number"
0.3e60	0.364706	"huge number"
4e-03	0.364706	"small 1 number"
5e-03	0.364706	"small 2 number"
6e-04	0.364706	"small 3 number"
7E-05	0.364706	"small 3 number"
0	0.364706	"zero"
