RowId	Mean_1	Mean_2	Mean_3	Mean_4	StDev_1	StDev_2	StDev_3	StDev_4
Row1	0.0607179	0.0955565	0.112181	0.119424	0.00291694	0.00767262	0.0219764	0.0156506
Row2	0.0642856	0.0969456	NA	0.0977286	0.00489155	0.00732563	NA	0.0146857
Row3	0.0826962	0.0795715	NA	NA	0.0038532	0.00645841	NA	NA
