<?xml version="1.0" encoding="UTF-8"?>
<graphml xmlns="http://graphml.graphdrawing.org/xmlns/graphml"
xmlns:xsi="http://www.w3.org/2001/XMLSchema-instance"  
xsi:schemaLocation="http://graphml.graphdrawing.org/xmlns/graphml">
<key id="id" for="graph" attr.name="id" attr.type="string"/>
<key id="BioentityId" for="node" attr.name="BioentityId" attr.type="string"/>
<key id="penwidth" for="node" attr.name="penwidth" attr.type="string"/>
<key id="EnsemblGeneId" for="node" attr.name="EnsemblGeneId" attr.type="string"/>
<key id="color" for="node" attr.name="color" attr.type="string"/>
<key id="isHit" for="node" attr.name="isHit" attr.type="string"/>
<key id="isPredicted" for="node" attr.name="isPredicted" attr.type="string"/>
<key id="label" for="node" attr.name="label" attr.type="string"/>
<key id="LinkTypeId" for="edge" attr.name="LinkTypeId" attr.type="string"/>
<key id="Keggonen" for="edge" attr.name="Keggonen" attr.type="string"/>
<key id="LinkWeight" for="edge" attr.name="LinkWeight" attr.type="string"/>
<key id="color" for="edge" attr.name="color" attr.type="string"/>
<key id="arrowhead" for="edge" attr.name="arrowhead" attr.type="string"/>
<key id="LinkType" for="edge" attr.name="LinkType" attr.type="string"/>
<graph edgedefault="directed">
<data key="id">G</data>
<node id="n8">
<data key="label">n8</data>
</node>
</graph>
</graphml>
