"col1"	"col2"	"col3"	"col4"	"col5"	"col6"	"col7"	"col8"	"col9"	"col10"	"col11"	"col12"	"col13"	"col14"	"col15"	"col16"	"col17"	"col18"	"col19"	"col20"	"row.names"
23	23	29	20	20	21	14	18	20	22	15	20	18	15	25	14	17	15	22	27	"row1"
18	26	21	23	24	24	19	19	22	23	15	20	18	20	21	22	19	20	17	13	"row2"
15	20	22	24	19	17	20	17	21	21	22	23	19	21	20	20	24	25	18	23	"row3"
20	20	23	21	17	20	25	27	25	19	16	21	23	21	19	20	26	17	20	27	"row4"
17	15	18	27	21	16	17	21	19	14	27	18	20	20	21	19	20	23	18	14	"row5"
23	24	15	22	20	17	14	14	18	23	18	14	21	13	16	16	22	15	18	19	"row6"
24	20	19	21	11	23	21	22	20	22	28	17	21	23	26	20	14	19	21	18	"row7"
17	23	18	21	22	18	18	19	19	21	15	18	18	22	17	22	21	22	23	21	"row8"
20	20	19	21	18	14	18	23	17	16	22	17	12	21	17	22	22	26	18	23	"row9"
22	19	17	21	14	22	21	24	20	17	25	23	26	16	18	18	14	19	14	13	"row10"
18	18	21	18	22	28	24	20	19	22	26	18	22	19	18	24	21	22	16	23	"row11"
23	24	18	20	19	24	23	25	18	19	26	25	22	18	15	24	18	20	22	17	"row12"
27	23	21	21	22	19	20	11	20	22	17	24	21	22	15	12	15	20	16	18	"row13"
21	22	16	25	22	21	28	21	22	18	24	25	25	20	20	15	16	22	23	17	"row14"
18	23	20	18	19	29	27	20	18	28	20	23	27	20	25	23	15	21	20	19	"row15"
20	21	20	14	21	23	19	22	19	22	19	23	20	21	18	19	17	21	16	20	"row16"
23	20	23	22	19	20	13	23	17	20	24	23	17	22	18	21	18	23	15	23	"row17"
16	14	20	17	22	22	22	20	23	21	21	20	25	18	19	19	21	17	17	23	"row18"
19	19	9	24	22	17	24	22	22	21	22	19	24	15	22	23	20	17	23	17	"row19"
19	17	18	19	23	16	22	23	21	17	14	19	18	17	25	18	19	20	22	22	"row20"
