"Vertex"	"InDegree"	"OutDegree"	"ClusteringCoeff"	"DegreeCentrality"	"ClosenessCentrality"	"BetweennessCentrality"	"EigenvectorCentrality"	"DegreeCentralityRank"	"ClosenessCentralityRank"	"BetweennessCentralityRank"	"EigenvectorCentralityRank"
"name1"	1	1	0.0	0.25	0.5714285714285714	0.0	1.0	0.0	0.0	0.0	0.0
"name2"	1	1	0.0	0.25	0.5714285714285714	0.0	1.0	0.0	0.0	0.0	0.0
"name3"	1	1	0.0	0.25	0.5714285714285714	0.0	1.0	0.0	0.0	0.0	0.0
"name4"	1	1	0.0	0.25	0.5714285714285714	0.0	1.0	0.0	0.0	0.0	0.0
"name5"	4	4	0.0	1.0	1.0	0.5	1.0	1.0	1.0	1.0	0.0
