"ID"	"Members"
"NOT_set1_AND_NOT_set2"	""
"set1_AND_NOT_set2"	"G1,G3"
"NOT_set1_AND_set2"	"G4"
"set1_AND_set2"	"G2"
"NOT_set1_AND_NOT_set3"	""
"set1_AND_NOT_set3"	"G2"
"NOT_set1_AND_set3"	""
"set1_AND_set3"	"G1,G3"
"NOT_set2_AND_NOT_set3"	""
"set2_AND_NOT_set3"	"G2,G4"
"NOT_set2_AND_set3"	"G1,G3"
"set2_AND_set3"	""
"NOT_set1_AND_NOT_set2_AND_NOT_set3"	""
"set1_AND_NOT_set2_AND_NOT_set3"	""
"NOT_set1_AND_set2_AND_NOT_set3"	"G4"
"set1_AND_set2_AND_NOT_set3"	"G2"
"NOT_set1_AND_NOT_set2_AND_set3"	""
"set1_AND_NOT_set2_AND_set3"	"G1,G3"
"NOT_set1_AND_set2_AND_set3"	""
"set1_AND_set2_AND_set3"	""
