"group"	"factors"	"n"	"pValue"	"plot"
"SNP_Add_Uncommon"	"CC,CT,TT"	"603,336,56"	0	"component-KM1.pdf"
"touhukas"	"Huutaa,Jaska,MopoMopo"	"337,56,603"	0	"component-KM2.pdf"
"oneValue"	""	"996"	NA	"component-KM3.pdf"
